<svg width="2560" height="1250" viewBox="0 0 2560 1250" fill="none" xmlns="http://www.w3.org/2000/svg">
<mask id="path-1-inside-1_124_1282" fill="white">
<path fill-rule="evenodd" clip-rule="evenodd" d="M463.343 368.343C461 370.686 461 374.458 461 382V402.295C461 409.838 461 413.609 463.343 415.952C465.686 418.295 469.458 418.295 477 418.295H500.861C502.241 418.295 502.93 418.295 503.436 418.401C504.207 418.562 504.081 418.516 504.776 418.888C505.231 419.132 506.514 420.208 509.08 422.36C511.045 424.008 513.574 425 516.333 425C519.093 425 521.622 424.008 523.587 422.36C526.153 420.208 527.436 419.132 527.891 418.888C528.586 418.516 528.459 418.562 529.231 418.401C529.736 418.295 530.426 418.295 531.805 418.295H557C564.542 418.295 568.314 418.295 570.657 415.952C573 413.609 573 409.838 573 402.295V382C573 374.458 573 370.686 570.657 368.343C568.314 366 564.542 366 557 366H477C469.458 366 465.686 366 463.343 368.343Z"/>
</mask>
<path fill-rule="evenodd" clip-rule="evenodd" d="M463.343 368.343C461 370.686 461 374.458 461 382V402.295C461 409.838 461 413.609 463.343 415.952C465.686 418.295 469.458 418.295 477 418.295H500.861C502.241 418.295 502.93 418.295 503.436 418.401C504.207 418.562 504.081 418.516 504.776 418.888C505.231 419.132 506.514 420.208 509.08 422.36C511.045 424.008 513.574 425 516.333 425C519.093 425 521.622 424.008 523.587 422.36C526.153 420.208 527.436 419.132 527.891 418.888C528.586 418.516 528.459 418.562 529.231 418.401C529.736 418.295 530.426 418.295 531.805 418.295H557C564.542 418.295 568.314 418.295 570.657 415.952C573 413.609 573 409.838 573 402.295V382C573 374.458 573 370.686 570.657 368.343C568.314 366 564.542 366 557 366H477C469.458 366 465.686 366 463.343 368.343Z" fill="black"/>
<path d="M463.343 415.952L464.05 415.245L464.05 415.245L463.343 415.952ZM570.657 415.952L569.95 415.245L569.95 415.245L570.657 415.952ZM523.587 422.36L524.23 423.126L523.587 422.36ZM527.891 418.888L528.363 419.77L527.891 418.888ZM529.231 418.401L529.026 417.422L529.231 418.401ZM503.436 418.401L503.232 419.38L503.436 418.401ZM509.08 422.36L508.437 423.126L509.08 422.36ZM504.776 418.888L504.303 419.77L504.776 418.888ZM462 382C462 378.201 462.002 375.451 462.284 373.355C462.562 371.287 463.095 370.005 464.05 369.05L462.636 367.636C461.248 369.024 460.61 370.799 460.302 373.089C459.998 375.349 460 378.257 460 382H462ZM462 402.295V382H460V402.295H462ZM464.05 415.245C463.095 414.29 462.562 413.008 462.284 410.94C462.002 408.844 462 406.095 462 402.295H460C460 406.038 459.998 408.946 460.302 411.207C460.61 413.496 461.248 415.271 462.636 416.659L464.05 415.245ZM477 417.295C473.2 417.295 470.451 417.293 468.355 417.011C466.287 416.733 465.005 416.2 464.05 415.245L462.636 416.659C464.024 418.048 465.799 418.686 468.089 418.994C470.349 419.298 473.257 419.295 477 419.295V417.295ZM500.861 417.295H477V419.295H500.861V417.295ZM516.333 424C513.818 424 511.515 423.097 509.722 421.594L508.437 423.126C510.575 424.92 513.33 426 516.333 426V424ZM522.945 421.594C521.152 423.097 518.848 424 516.333 424V426C519.337 426 522.091 424.92 524.23 423.126L522.945 421.594ZM557 417.295H531.805V419.295H557V417.295ZM569.95 415.245C568.995 416.2 567.713 416.733 565.645 417.011C563.549 417.293 560.8 417.295 557 417.295V419.295C560.743 419.295 563.651 419.298 565.911 418.994C568.201 418.686 569.976 418.048 571.364 416.659L569.95 415.245ZM572 402.295C572 406.095 571.998 408.844 571.716 410.94C571.438 413.008 570.905 414.29 569.95 415.245L571.364 416.659C572.752 415.271 573.39 413.496 573.698 411.207C574.002 408.946 574 406.038 574 402.295H572ZM572 382V402.295H574V382H572ZM569.95 369.05C570.905 370.005 571.438 371.287 571.716 373.355C571.998 375.451 572 378.2 572 382H574C574 378.257 574.002 375.349 573.698 373.089C573.39 370.799 572.752 369.024 571.364 367.636L569.95 369.05ZM557 367C560.8 367 563.549 367.002 565.645 367.284C567.713 367.562 568.995 368.095 569.95 369.05L571.364 367.636C569.976 366.248 568.201 365.61 565.911 365.302C563.651 364.998 560.743 365 557 365V367ZM477 367H557V365H477V367ZM464.05 369.05C465.005 368.095 466.287 367.562 468.355 367.284C470.451 367.002 473.2 367 477 367V365C473.257 365 470.349 364.998 468.089 365.302C465.799 365.61 464.024 366.248 462.636 367.636L464.05 369.05ZM524.23 423.126C525.515 422.048 526.471 421.247 527.162 420.684C527.888 420.093 528.239 419.836 528.363 419.77L527.419 418.007C527.087 418.185 526.57 418.588 525.899 419.133C525.194 419.707 524.225 420.52 522.945 421.594L524.23 423.126ZM531.805 417.295C530.484 417.295 529.66 417.29 529.026 417.422L529.435 419.38C529.813 419.301 530.368 419.295 531.805 419.295V417.295ZM528.363 419.77C528.761 419.557 528.81 419.529 528.874 419.505C528.938 419.482 528.994 419.472 529.435 419.38L529.026 417.422C528.696 417.491 528.43 417.539 528.19 417.626C527.951 417.713 527.716 417.848 527.419 418.007L528.363 419.77ZM500.861 419.295C502.299 419.295 502.854 419.301 503.232 419.38L503.64 417.422C503.007 417.29 502.182 417.295 500.861 417.295V419.295ZM509.722 421.594C508.442 420.52 507.473 419.707 506.767 419.133C506.097 418.588 505.579 418.185 505.248 418.007L504.303 419.77C504.427 419.836 504.779 420.093 505.505 420.684C506.196 421.247 507.151 422.048 508.437 423.126L509.722 421.594ZM503.232 419.38C503.673 419.472 503.729 419.482 503.793 419.505C503.857 419.529 503.906 419.557 504.303 419.77L505.248 418.007C504.951 417.848 504.716 417.713 504.477 417.626C504.237 417.539 503.97 417.491 503.64 417.422L503.232 419.38Z" fill="black" mask="url(#path-1-inside-1_124_1282)"/>
<path opacity="0.8" d="M473.925 407.935C472.885 407.935 472.152 407.628 471.728 407.012C471.303 406.388 471.091 405.53 471.091 404.438V400.72C471.091 399.568 471.299 398.692 471.715 398.094C472.131 397.496 472.867 397.197 473.925 397.197C474.869 397.197 475.545 397.453 475.953 397.964C476.369 398.476 476.577 399.23 476.577 400.226V401.058H475.186V400.317C475.186 399.832 475.164 399.459 475.121 399.199C475.077 398.939 474.965 398.731 474.783 398.575C474.609 398.419 474.328 398.341 473.938 398.341C473.539 398.341 473.24 398.428 473.041 398.601C472.85 398.766 472.724 399 472.664 399.303C472.603 399.598 472.573 399.997 472.573 400.499V404.672C472.573 405.21 472.616 405.63 472.703 405.933C472.789 406.237 472.928 406.453 473.119 406.583C473.318 406.713 473.591 406.778 473.938 406.778C474.31 406.778 474.588 406.696 474.77 406.531C474.952 406.367 475.064 406.141 475.108 405.855C475.16 405.569 475.186 405.179 475.186 404.685V403.905H476.577V404.685C476.577 405.734 476.377 406.54 475.979 407.103C475.589 407.658 474.904 407.935 473.925 407.935ZM479.133 398.38H477.352V397.288H482.331V398.38H480.602V407.818H479.133V398.38ZM483.346 397.288H485.959C486.869 397.288 487.528 397.535 487.935 398.029C488.351 398.523 488.559 399.247 488.559 400.2C488.559 401.058 488.338 401.726 487.896 402.202C487.454 402.679 486.813 402.917 485.972 402.917H484.815V407.818H483.346V397.288ZM485.491 401.864C485.925 401.864 486.258 401.817 486.492 401.721C486.735 401.626 486.908 401.461 487.012 401.227C487.116 400.993 487.168 400.655 487.168 400.213C487.168 399.676 487.129 399.282 487.051 399.03C486.973 398.779 486.817 398.601 486.583 398.497C486.358 398.393 485.998 398.341 485.504 398.341H484.815V401.864H485.491ZM489.41 406.271H490.801V407.818H489.41V406.271ZM496.417 399.108C496.4 399.134 496.136 399.195 495.624 399.29C495.122 399.386 494.775 399.451 494.584 399.485V398.432C495.642 398.181 496.365 397.8 496.755 397.288H497.808V407.818H496.417V399.108ZM499.869 408.923C500.103 408.845 500.285 408.707 500.415 408.507C500.553 408.317 500.623 408.087 500.623 407.818H499.882V406.323H501.312V407.792C501.312 408.252 501.212 408.616 501.013 408.884C500.813 409.162 500.506 409.374 500.09 409.521L499.869 408.923ZM505.563 397.288H511.361V407.818H509.892V398.341H507.032V407.818H505.563V397.288ZM515.694 407.935C514.662 407.935 513.921 407.645 513.471 407.064C513.029 406.475 512.808 405.626 512.808 404.516V400.525C512.808 399.433 513.033 398.606 513.484 398.042C513.934 397.479 514.671 397.197 515.694 397.197C516.716 397.197 517.449 397.483 517.891 398.055C518.341 398.619 518.567 399.442 518.567 400.525V404.529C518.567 405.621 518.341 406.462 517.891 407.051C517.44 407.641 516.708 407.935 515.694 407.935ZM515.694 406.778C516.24 406.778 516.608 406.618 516.799 406.297C516.989 405.977 517.085 405.491 517.085 404.841V400.226C517.085 399.585 516.989 399.113 516.799 398.809C516.608 398.497 516.24 398.341 515.694 398.341C515.139 398.341 514.766 398.497 514.576 398.809C514.385 399.113 514.29 399.585 514.29 400.226V404.841C514.29 405.491 514.385 405.977 514.576 406.297C514.766 406.618 515.139 406.778 515.694 406.778ZM519.334 406.765H519.815C520.119 406.514 520.37 406.198 520.569 405.816C520.777 405.435 520.959 404.82 521.115 403.97C521.28 403.112 521.397 401.925 521.466 400.408L521.635 397.288H526.042V406.765H527.056V409.729H525.925L525.808 407.818H520.582L520.465 409.729H519.334V406.765ZM524.586 406.765V398.38H522.883L522.779 400.759C522.719 402.224 522.615 403.351 522.467 404.139C522.32 404.928 522.151 405.487 521.96 405.816C521.77 406.137 521.51 406.453 521.18 406.765H524.586ZM529.11 398.406H527.407V397.288H530.579V401.669H530.982C531.779 401.669 532.42 401.76 532.906 401.942C533.4 402.124 533.768 402.436 534.011 402.878C534.253 403.32 534.375 403.94 534.375 404.737C534.375 405.812 534.106 406.596 533.569 407.09C533.04 407.576 532.204 407.818 531.06 407.818H529.11V398.406ZM531.073 406.765C531.541 406.765 531.909 406.713 532.178 406.609C532.446 406.505 532.646 406.306 532.776 406.011C532.914 405.717 532.984 405.288 532.984 404.724C532.984 404.239 532.923 403.853 532.802 403.567C532.68 403.281 532.477 403.073 532.191 402.943C531.913 402.805 531.528 402.735 531.034 402.735H530.579V406.765H531.073ZM535.537 397.288H539.619V398.38H537.006V401.864H539.125V402.904H537.006V406.765H539.645V407.818H535.537V397.288ZM543.132 407.935C542.291 407.935 541.65 407.701 541.208 407.233C540.774 406.757 540.558 406.089 540.558 405.231V404.88H541.936C541.936 405.054 541.94 405.175 541.949 405.244C541.966 405.738 542.057 406.12 542.222 406.388C542.395 406.648 542.698 406.778 543.132 406.778C543.6 406.778 543.916 406.618 544.081 406.297C544.254 405.977 544.341 405.496 544.341 404.854C544.341 404.256 544.211 403.788 543.951 403.45C543.691 403.112 543.24 402.922 542.599 402.878C542.529 402.87 542.395 402.865 542.196 402.865V401.747C542.386 401.747 542.512 401.743 542.573 401.734C543.223 401.7 543.678 401.535 543.938 401.24C544.206 400.937 544.341 400.495 544.341 399.914C544.341 399.412 544.241 399.022 544.042 398.744C543.842 398.467 543.517 398.328 543.067 398.328C542.625 398.328 542.3 398.467 542.092 398.744C541.884 399.013 541.762 399.399 541.728 399.901V400.239H540.337V399.888C540.337 399.048 540.571 398.389 541.039 397.912C541.507 397.436 542.165 397.197 543.015 397.197C543.873 397.197 544.54 397.44 545.017 397.925C545.493 398.411 545.732 399.074 545.732 399.914C545.732 400.538 545.597 401.054 545.329 401.461C545.06 401.86 544.692 402.124 544.224 402.254C544.7 402.41 545.069 402.709 545.329 403.151C545.597 403.585 545.732 404.152 545.732 404.854C545.732 406.908 544.865 407.935 543.132 407.935ZM546.401 406.765H546.882C547.185 406.514 547.436 406.198 547.636 405.816C547.844 405.435 548.026 404.82 548.182 403.97C548.346 403.112 548.463 401.925 548.533 400.408L548.702 397.288H553.109V406.765H554.123V409.729H552.992L552.875 407.818H547.649L547.532 409.729H546.401V406.765ZM551.653 406.765V398.38H549.95L549.846 400.759C549.785 402.224 549.681 403.351 549.534 404.139C549.386 404.928 549.217 405.487 549.027 405.816C548.836 406.137 548.576 406.453 548.247 406.765H551.653ZM559.602 399.108C559.585 399.134 559.32 399.195 558.809 399.29C558.306 399.386 557.96 399.451 557.769 399.485V398.432C558.826 398.181 559.55 397.8 559.94 397.288H560.993V407.818H559.602V399.108Z" fill="white"/>
<path d="M477.683 376.102H479.681V390.682H477.683V376.102ZM482.148 376.102H484.146V390.682H482.148V376.102ZM486.612 376.102H488.61V390.682H486.612V376.102ZM495.083 376.102H497.117V382.582H497.873L500.483 376.102H502.517L499.637 383.032L502.877 390.682H500.843L497.891 383.572H497.117V390.682H495.083V376.102ZM504.223 376.102H507.571C508.891 376.102 509.869 376.402 510.505 377.002C511.141 377.59 511.459 378.508 511.459 379.756C511.459 381.616 510.763 382.642 509.371 382.834C510.235 383.038 510.865 383.446 511.261 384.058C511.657 384.658 511.855 385.48 511.855 386.524C511.855 387.832 511.543 388.852 510.919 389.584C510.307 390.316 509.371 390.682 508.111 390.682H504.223V376.102ZM507.463 382.186C508.303 382.186 508.885 382.006 509.209 381.646C509.533 381.274 509.695 380.644 509.695 379.756C509.695 379.108 509.593 378.634 509.389 378.334C509.197 378.022 508.903 377.824 508.507 377.74C508.111 377.656 507.523 377.614 506.743 377.614H506.257V382.186H507.463ZM507.625 389.224C508.225 389.224 508.687 389.134 509.011 388.954C509.347 388.762 509.581 388.474 509.713 388.09C509.845 387.706 509.911 387.184 509.911 386.524C509.911 385.588 509.719 384.892 509.335 384.436C508.951 383.968 508.327 383.734 507.463 383.734H506.257V389.224H507.625ZM513.411 388.54H515.337V390.682H513.411V388.54ZM520.772 389.314L524.48 383.536C524.66 383.248 524.78 383.068 524.84 382.996C525.26 382.324 525.566 381.766 525.758 381.322C525.95 380.878 526.046 380.344 526.046 379.72C526.046 379.024 525.932 378.49 525.704 378.118C525.476 377.746 525.104 377.56 524.588 377.56C523.436 377.56 522.86 378.454 522.86 380.242V380.728H520.934V380.224C520.934 378.856 521.216 377.806 521.78 377.074C522.344 376.342 523.25 375.976 524.498 375.976C525.65 375.976 526.52 376.306 527.108 376.966C527.696 377.614 527.99 378.538 527.99 379.738C527.99 380.326 527.918 380.854 527.774 381.322C527.642 381.778 527.48 382.174 527.288 382.51C527.096 382.846 526.796 383.326 526.388 383.95L523.04 389.062H527.648V390.682H520.772V389.314ZM533.292 390.844C532.092 390.844 531.186 390.454 530.574 389.674C529.974 388.894 529.674 387.85 529.674 386.542V380.26C529.674 378.928 529.968 377.884 530.556 377.128C531.156 376.36 532.068 375.976 533.292 375.976C534.504 375.976 535.404 376.36 535.992 377.128C536.592 377.884 536.892 378.928 536.892 380.26V386.542C536.892 387.862 536.592 388.912 535.992 389.692C535.392 390.46 534.492 390.844 533.292 390.844ZM533.292 389.26C534.396 389.26 534.948 388.36 534.948 386.56V380.242C534.948 379.414 534.828 378.76 534.588 378.28C534.36 377.788 533.928 377.542 533.292 377.542C532.656 377.542 532.218 377.788 531.978 378.28C531.738 378.76 531.618 379.414 531.618 380.242V386.56C531.618 388.36 532.176 389.26 533.292 389.26ZM538.667 389.314L542.375 383.536C542.555 383.248 542.675 383.068 542.735 382.996C543.155 382.324 543.461 381.766 543.653 381.322C543.845 380.878 543.941 380.344 543.941 379.72C543.941 379.024 543.827 378.49 543.599 378.118C543.371 377.746 542.999 377.56 542.483 377.56C541.331 377.56 540.755 378.454 540.755 380.242V380.728H538.829V380.224C538.829 378.856 539.111 377.806 539.675 377.074C540.239 376.342 541.145 375.976 542.393 375.976C543.545 375.976 544.415 376.306 545.003 376.966C545.591 377.614 545.885 378.538 545.885 379.738C545.885 380.326 545.813 380.854 545.669 381.322C545.537 381.778 545.375 382.174 545.183 382.51C544.991 382.846 544.691 383.326 544.283 383.95L540.935 389.062H545.543V390.682H538.667V389.314ZM551.475 386.776H547.245V384.76L551.043 376.102H553.311V385.066H554.949V386.776H553.311V390.682H551.475V386.776ZM551.475 385.066V378.442L549.099 385.066H551.475Z" fill="white"/>
<mask id="path-5-inside-2_124_1282" fill="white">
<path fill-rule="evenodd" clip-rule="evenodd" d="M1600.34 420.343C1598 422.686 1598 426.458 1598 434V454.295C1598 461.838 1598 465.609 1600.34 467.952C1602.69 470.295 1606.46 470.295 1614 470.295H1637.86C1639.24 470.295 1639.93 470.295 1640.44 470.401C1641.21 470.562 1641.08 470.516 1641.78 470.888C1642.23 471.132 1643.51 472.208 1646.08 474.36C1648.05 476.008 1650.57 477 1653.33 477C1656.09 477 1658.62 476.008 1660.59 474.36C1663.15 472.208 1664.44 471.132 1664.89 470.888C1665.59 470.516 1665.46 470.562 1666.23 470.401C1666.74 470.295 1667.43 470.295 1668.81 470.295H1694C1701.54 470.295 1705.31 470.295 1707.66 467.952C1710 465.609 1710 461.838 1710 454.295V434C1710 426.458 1710 422.686 1707.66 420.343C1705.31 418 1701.54 418 1694 418H1614C1606.46 418 1602.69 418 1600.34 420.343Z"/>
</mask>
<path fill-rule="evenodd" clip-rule="evenodd" d="M1600.34 420.343C1598 422.686 1598 426.458 1598 434V454.295C1598 461.838 1598 465.609 1600.34 467.952C1602.69 470.295 1606.46 470.295 1614 470.295H1637.86C1639.24 470.295 1639.93 470.295 1640.44 470.401C1641.21 470.562 1641.08 470.516 1641.78 470.888C1642.23 471.132 1643.51 472.208 1646.08 474.36C1648.05 476.008 1650.57 477 1653.33 477C1656.09 477 1658.62 476.008 1660.59 474.36C1663.15 472.208 1664.44 471.132 1664.89 470.888C1665.59 470.516 1665.46 470.562 1666.23 470.401C1666.74 470.295 1667.43 470.295 1668.81 470.295H1694C1701.54 470.295 1705.31 470.295 1707.66 467.952C1710 465.609 1710 461.838 1710 454.295V434C1710 426.458 1710 422.686 1707.66 420.343C1705.31 418 1701.54 418 1694 418H1614C1606.46 418 1602.69 418 1600.34 420.343Z" fill="black"/>
<path d="M1600.34 467.952L1601.05 467.245L1601.05 467.245L1600.34 467.952ZM1707.66 467.952L1706.95 467.245L1706.95 467.245L1707.66 467.952ZM1660.59 474.36L1661.23 475.126L1660.59 474.36ZM1664.89 470.888L1665.36 471.77L1664.89 470.888ZM1666.23 470.401L1666.03 469.422L1666.23 470.401ZM1640.44 470.401L1640.23 471.38L1640.44 470.401ZM1646.08 474.36L1645.44 475.126L1646.08 474.36ZM1641.78 470.888L1641.3 471.77L1641.78 470.888ZM1599 434C1599 430.201 1599 427.451 1599.28 425.355C1599.56 423.287 1600.1 422.005 1601.05 421.05L1599.64 419.636C1598.25 421.024 1597.61 422.799 1597.3 425.089C1597 427.349 1597 430.257 1597 434H1599ZM1599 454.295V434H1597V454.295H1599ZM1601.05 467.245C1600.1 466.29 1599.56 465.008 1599.28 462.94C1599 460.844 1599 458.095 1599 454.295H1597C1597 458.038 1597 460.946 1597.3 463.207C1597.61 465.496 1598.25 467.271 1599.64 468.659L1601.05 467.245ZM1614 469.295C1610.2 469.295 1607.45 469.293 1605.36 469.011C1603.29 468.733 1602.01 468.2 1601.05 467.245L1599.64 468.659C1601.02 470.048 1602.8 470.686 1605.09 470.994C1607.35 471.298 1610.26 471.295 1614 471.295V469.295ZM1637.86 469.295H1614V471.295H1637.86V469.295ZM1653.33 476C1650.82 476 1648.51 475.097 1646.72 473.594L1645.44 475.126C1647.58 476.92 1650.33 478 1653.33 478V476ZM1659.94 473.594C1658.15 475.097 1655.85 476 1653.33 476V478C1656.34 478 1659.09 476.92 1661.23 475.126L1659.94 473.594ZM1694 469.295H1668.81V471.295H1694V469.295ZM1706.95 467.245C1705.99 468.2 1704.71 468.733 1702.64 469.011C1700.55 469.293 1697.8 469.295 1694 469.295V471.295C1697.74 471.295 1700.65 471.298 1702.91 470.994C1705.2 470.686 1706.98 470.048 1708.36 468.659L1706.95 467.245ZM1709 454.295C1709 458.095 1709 460.844 1708.72 462.94C1708.44 465.008 1707.9 466.29 1706.95 467.245L1708.36 468.659C1709.75 467.271 1710.39 465.496 1710.7 463.207C1711 460.946 1711 458.038 1711 454.295H1709ZM1709 434V454.295H1711V434H1709ZM1706.95 421.05C1707.9 422.005 1708.44 423.287 1708.72 425.355C1709 427.451 1709 430.2 1709 434H1711C1711 430.257 1711 427.349 1710.7 425.089C1710.39 422.799 1709.75 421.024 1708.36 419.636L1706.95 421.05ZM1694 419C1697.8 419 1700.55 419.002 1702.64 419.284C1704.71 419.562 1705.99 420.095 1706.95 421.05L1708.36 419.636C1706.98 418.248 1705.2 417.61 1702.91 417.302C1700.65 416.998 1697.74 417 1694 417V419ZM1614 419H1694V417H1614V419ZM1601.05 421.05C1602.01 420.095 1603.29 419.562 1605.36 419.284C1607.45 419.002 1610.2 419 1614 419V417C1610.26 417 1607.35 416.998 1605.09 417.302C1602.8 417.61 1601.02 418.248 1599.64 419.636L1601.05 421.05ZM1661.23 475.126C1662.52 474.048 1663.47 473.247 1664.16 472.684C1664.89 472.093 1665.24 471.836 1665.36 471.77L1664.42 470.007C1664.09 470.185 1663.57 470.588 1662.9 471.133C1662.19 471.707 1661.22 472.52 1659.94 473.594L1661.23 475.126ZM1668.81 469.295C1667.48 469.295 1666.66 469.29 1666.03 469.422L1666.44 471.38C1666.81 471.301 1667.37 471.295 1668.81 471.295V469.295ZM1665.36 471.77C1665.76 471.557 1665.81 471.529 1665.87 471.505C1665.94 471.482 1665.99 471.472 1666.44 471.38L1666.03 469.422C1665.7 469.491 1665.43 469.539 1665.19 469.626C1664.95 469.713 1664.72 469.848 1664.42 470.007L1665.36 471.77ZM1637.86 471.295C1639.3 471.295 1639.85 471.301 1640.23 471.38L1640.64 469.422C1640.01 469.29 1639.18 469.295 1637.86 469.295V471.295ZM1646.72 473.594C1645.44 472.52 1644.47 471.707 1643.77 471.133C1643.1 470.588 1642.58 470.185 1642.25 470.007L1641.3 471.77C1641.43 471.836 1641.78 472.093 1642.5 472.684C1643.2 473.247 1644.15 474.048 1645.44 475.126L1646.72 473.594ZM1640.23 471.38C1640.67 471.472 1640.73 471.482 1640.79 471.505C1640.86 471.529 1640.91 471.557 1641.3 471.77L1642.25 470.007C1641.95 469.848 1641.72 469.713 1641.48 469.626C1641.24 469.539 1640.97 469.491 1640.64 469.422L1640.23 471.38Z" fill="black" mask="url(#path-5-inside-2_124_1282)"/>
<path opacity="0.8" d="M1609.9 459.935C1608.86 459.935 1608.13 459.628 1607.7 459.012C1607.28 458.388 1607.06 457.53 1607.06 456.438V452.72C1607.06 451.568 1607.27 450.692 1607.69 450.094C1608.1 449.496 1608.84 449.197 1609.9 449.197C1610.84 449.197 1611.52 449.453 1611.93 449.964C1612.34 450.476 1612.55 451.23 1612.55 452.226V453.058H1611.16V452.317C1611.16 451.832 1611.14 451.459 1611.09 451.199C1611.05 450.939 1610.94 450.731 1610.76 450.575C1610.58 450.419 1610.3 450.341 1609.91 450.341C1609.51 450.341 1609.21 450.428 1609.01 450.601C1608.82 450.766 1608.7 451 1608.64 451.303C1608.58 451.598 1608.55 451.997 1608.55 452.499V456.672C1608.55 457.21 1608.59 457.63 1608.68 457.933C1608.76 458.237 1608.9 458.453 1609.09 458.583C1609.29 458.713 1609.56 458.778 1609.91 458.778C1610.28 458.778 1610.56 458.696 1610.74 458.531C1610.92 458.367 1611.04 458.141 1611.08 457.855C1611.13 457.569 1611.16 457.179 1611.16 456.685V455.905H1612.55V456.685C1612.55 457.734 1612.35 458.54 1611.95 459.103C1611.56 459.658 1610.88 459.935 1609.9 459.935ZM1615.11 450.38H1613.33V449.288H1618.3V450.38H1616.58V459.818H1615.11V450.38ZM1619.32 449.288H1621.93C1622.84 449.288 1623.5 449.535 1623.91 450.029C1624.32 450.523 1624.53 451.247 1624.53 452.2C1624.53 453.058 1624.31 453.726 1623.87 454.202C1623.43 454.679 1622.79 454.917 1621.95 454.917H1620.79V459.818H1619.32V449.288ZM1621.46 453.864C1621.9 453.864 1622.23 453.817 1622.47 453.721C1622.71 453.626 1622.88 453.461 1622.99 453.227C1623.09 452.993 1623.14 452.655 1623.14 452.213C1623.14 451.676 1623.1 451.282 1623.02 451.03C1622.95 450.779 1622.79 450.601 1622.56 450.497C1622.33 450.393 1621.97 450.341 1621.48 450.341H1620.79V453.864H1621.46ZM1625.38 458.271H1626.77V459.818H1625.38V458.271ZM1630.7 458.83L1633.38 454.657C1633.51 454.449 1633.6 454.319 1633.64 454.267C1633.94 453.782 1634.16 453.379 1634.3 453.058C1634.44 452.738 1634.51 452.352 1634.51 451.901C1634.51 451.399 1634.43 451.013 1634.26 450.744C1634.1 450.476 1633.83 450.341 1633.46 450.341C1632.62 450.341 1632.21 450.987 1632.21 452.278V452.629H1630.82V452.265C1630.82 451.277 1631.02 450.519 1631.43 449.99C1631.84 449.462 1632.49 449.197 1633.39 449.197C1634.22 449.197 1634.85 449.436 1635.28 449.912C1635.7 450.38 1635.91 451.048 1635.91 451.914C1635.91 452.339 1635.86 452.72 1635.76 453.058C1635.66 453.388 1635.55 453.674 1635.41 453.916C1635.27 454.159 1635.05 454.506 1634.76 454.956L1632.34 458.648H1635.67V459.818H1630.7V458.83ZM1636.9 460.923C1637.13 460.845 1637.31 460.707 1637.44 460.507C1637.58 460.317 1637.65 460.087 1637.65 459.818H1636.91V458.323H1638.34V459.792C1638.34 460.252 1638.24 460.616 1638.04 460.884C1637.84 461.162 1637.53 461.374 1637.12 461.521L1636.9 460.923ZM1642.59 449.288H1648.39V459.818H1646.92V450.341H1644.06V459.818H1642.59V449.288ZM1652.72 459.935C1651.69 459.935 1650.95 459.645 1650.5 459.064C1650.06 458.475 1649.83 457.626 1649.83 456.516V452.525C1649.83 451.433 1650.06 450.606 1650.51 450.042C1650.96 449.479 1651.7 449.197 1652.72 449.197C1653.74 449.197 1654.48 449.483 1654.92 450.055C1655.37 450.619 1655.59 451.442 1655.59 452.525V456.529C1655.59 457.621 1655.37 458.462 1654.92 459.051C1654.47 459.641 1653.73 459.935 1652.72 459.935ZM1652.72 458.778C1653.27 458.778 1653.63 458.618 1653.83 458.297C1654.02 457.977 1654.11 457.491 1654.11 456.841V452.226C1654.11 451.585 1654.02 451.113 1653.83 450.809C1653.63 450.497 1653.27 450.341 1652.72 450.341C1652.17 450.341 1651.79 450.497 1651.6 450.809C1651.41 451.113 1651.32 451.585 1651.32 452.226V456.841C1651.32 457.491 1651.41 457.977 1651.6 458.297C1651.79 458.618 1652.17 458.778 1652.72 458.778ZM1656.36 458.765H1656.84C1657.15 458.514 1657.4 458.198 1657.6 457.816C1657.8 457.435 1657.99 456.82 1658.14 455.97C1658.31 455.112 1658.42 453.925 1658.49 452.408L1658.66 449.288H1663.07V458.765H1664.08V461.729H1662.95L1662.84 459.818H1657.61L1657.49 461.729H1656.36V458.765ZM1661.61 458.765V450.38H1659.91L1659.81 452.759C1659.75 454.224 1659.64 455.351 1659.49 456.139C1659.35 456.928 1659.18 457.487 1658.99 457.816C1658.8 458.137 1658.54 458.453 1658.21 458.765H1661.61ZM1666.14 450.406H1664.43V449.288H1667.61V453.669H1668.01C1668.81 453.669 1669.45 453.76 1669.93 453.942C1670.43 454.124 1670.79 454.436 1671.04 454.878C1671.28 455.32 1671.4 455.94 1671.4 456.737C1671.4 457.812 1671.13 458.596 1670.6 459.09C1670.07 459.576 1669.23 459.818 1668.09 459.818H1666.14V450.406ZM1668.1 458.765C1668.57 458.765 1668.94 458.713 1669.2 458.609C1669.47 458.505 1669.67 458.306 1669.8 458.011C1669.94 457.717 1670.01 457.288 1670.01 456.724C1670.01 456.239 1669.95 455.853 1669.83 455.567C1669.71 455.281 1669.5 455.073 1669.22 454.943C1668.94 454.805 1668.55 454.735 1668.06 454.735H1667.61V458.765H1668.1ZM1672.56 449.288H1676.65V450.38H1674.03V453.864H1676.15V454.904H1674.03V458.765H1676.67V459.818H1672.56V449.288ZM1680.16 459.935C1679.32 459.935 1678.68 459.701 1678.23 459.233C1677.8 458.757 1677.58 458.089 1677.58 457.231V456.88H1678.96C1678.96 457.054 1678.97 457.175 1678.98 457.244C1678.99 457.738 1679.08 458.12 1679.25 458.388C1679.42 458.648 1679.73 458.778 1680.16 458.778C1680.63 458.778 1680.94 458.618 1681.11 458.297C1681.28 457.977 1681.37 457.496 1681.37 456.854C1681.37 456.256 1681.24 455.788 1680.98 455.45C1680.72 455.112 1680.27 454.922 1679.63 454.878C1679.56 454.87 1679.42 454.865 1679.22 454.865V453.747C1679.41 453.747 1679.54 453.743 1679.6 453.734C1680.25 453.7 1680.7 453.535 1680.96 453.24C1681.23 452.937 1681.37 452.495 1681.37 451.914C1681.37 451.412 1681.27 451.022 1681.07 450.744C1680.87 450.467 1680.54 450.328 1680.09 450.328C1679.65 450.328 1679.33 450.467 1679.12 450.744C1678.91 451.013 1678.79 451.399 1678.75 451.901V452.239H1677.36V451.888C1677.36 451.048 1677.6 450.389 1678.07 449.912C1678.53 449.436 1679.19 449.197 1680.04 449.197C1680.9 449.197 1681.57 449.44 1682.04 449.925C1682.52 450.411 1682.76 451.074 1682.76 451.914C1682.76 452.538 1682.62 453.054 1682.36 453.461C1682.09 453.86 1681.72 454.124 1681.25 454.254C1681.73 454.41 1682.1 454.709 1682.36 455.151C1682.62 455.585 1682.76 456.152 1682.76 456.854C1682.76 458.908 1681.89 459.935 1680.16 459.935ZM1683.43 458.765H1683.91C1684.21 458.514 1684.46 458.198 1684.66 457.816C1684.87 457.435 1685.05 456.82 1685.21 455.97C1685.37 455.112 1685.49 453.925 1685.56 452.408L1685.73 449.288H1690.14V458.765H1691.15V461.729H1690.02L1689.9 459.818H1684.68L1684.56 461.729H1683.43V458.765ZM1688.68 458.765V450.38H1686.98L1686.87 452.759C1686.81 454.224 1686.71 455.351 1686.56 456.139C1686.41 456.928 1686.24 457.487 1686.05 457.816C1685.86 458.137 1685.6 458.453 1685.27 458.765H1688.68ZM1696.63 451.108C1696.61 451.134 1696.35 451.195 1695.84 451.29C1695.33 451.386 1694.99 451.451 1694.8 451.485V450.432C1695.85 450.181 1696.58 449.8 1696.97 449.288H1698.02V459.818H1696.63V451.108Z" fill="white"/>
<path d="M1614.68 428.102H1616.68V442.682H1614.68V428.102ZM1619.15 428.102H1621.15V442.682H1619.15V428.102ZM1623.61 428.102H1625.61V442.682H1623.61V428.102ZM1632.08 428.102H1634.12V434.582H1634.87L1637.48 428.102H1639.52L1636.64 435.032L1639.88 442.682H1637.84L1634.89 435.572H1634.12V442.682H1632.08V428.102ZM1641.22 428.102H1644.57C1645.89 428.102 1646.87 428.402 1647.51 429.002C1648.14 429.59 1648.46 430.508 1648.46 431.756C1648.46 433.616 1647.76 434.642 1646.37 434.834C1647.24 435.038 1647.87 435.446 1648.26 436.058C1648.66 436.658 1648.86 437.48 1648.86 438.524C1648.86 439.832 1648.54 440.852 1647.92 441.584C1647.31 442.316 1646.37 442.682 1645.11 442.682H1641.22V428.102ZM1644.46 434.186C1645.3 434.186 1645.89 434.006 1646.21 433.646C1646.53 433.274 1646.7 432.644 1646.7 431.756C1646.7 431.108 1646.59 430.634 1646.39 430.334C1646.2 430.022 1645.9 429.824 1645.51 429.74C1645.11 429.656 1644.52 429.614 1643.74 429.614H1643.26V434.186H1644.46ZM1644.63 441.224C1645.23 441.224 1645.69 441.134 1646.01 440.954C1646.35 440.762 1646.58 440.474 1646.71 440.09C1646.85 439.706 1646.91 439.184 1646.91 438.524C1646.91 437.588 1646.72 436.892 1646.34 436.436C1645.95 435.968 1645.33 435.734 1644.46 435.734H1643.26V441.224H1644.63ZM1650.41 440.54H1652.34V442.682H1650.41V440.54ZM1657.77 441.314L1661.48 435.536C1661.66 435.248 1661.78 435.068 1661.84 434.996C1662.26 434.324 1662.57 433.766 1662.76 433.322C1662.95 432.878 1663.05 432.344 1663.05 431.72C1663.05 431.024 1662.93 430.49 1662.7 430.118C1662.48 429.746 1662.1 429.56 1661.59 429.56C1660.44 429.56 1659.86 430.454 1659.86 432.242V432.728H1657.93V432.224C1657.93 430.856 1658.22 429.806 1658.78 429.074C1659.34 428.342 1660.25 427.976 1661.5 427.976C1662.65 427.976 1663.52 428.306 1664.11 428.966C1664.7 429.614 1664.99 430.538 1664.99 431.738C1664.99 432.326 1664.92 432.854 1664.77 433.322C1664.64 433.778 1664.48 434.174 1664.29 434.51C1664.1 434.846 1663.8 435.326 1663.39 435.95L1660.04 441.062H1664.65V442.682H1657.77V441.314ZM1670.29 442.844C1669.09 442.844 1668.19 442.454 1667.57 441.674C1666.97 440.894 1666.67 439.85 1666.67 438.542V432.26C1666.67 430.928 1666.97 429.884 1667.56 429.128C1668.16 428.36 1669.07 427.976 1670.29 427.976C1671.5 427.976 1672.4 428.36 1672.99 429.128C1673.59 429.884 1673.89 430.928 1673.89 432.26V438.542C1673.89 439.862 1673.59 440.912 1672.99 441.692C1672.39 442.46 1671.49 442.844 1670.29 442.844ZM1670.29 441.26C1671.4 441.26 1671.95 440.36 1671.95 438.56V432.242C1671.95 431.414 1671.83 430.76 1671.59 430.28C1671.36 429.788 1670.93 429.542 1670.29 429.542C1669.66 429.542 1669.22 429.788 1668.98 430.28C1668.74 430.76 1668.62 431.414 1668.62 432.242V438.56C1668.62 440.36 1669.18 441.26 1670.29 441.26ZM1675.67 441.314L1679.38 435.536C1679.56 435.248 1679.68 435.068 1679.74 434.996C1680.16 434.324 1680.46 433.766 1680.65 433.322C1680.85 432.878 1680.94 432.344 1680.94 431.72C1680.94 431.024 1680.83 430.49 1680.6 430.118C1680.37 429.746 1680 429.56 1679.48 429.56C1678.33 429.56 1677.76 430.454 1677.76 432.242V432.728H1675.83V432.224C1675.83 430.856 1676.11 429.806 1676.68 429.074C1677.24 428.342 1678.15 427.976 1679.39 427.976C1680.55 427.976 1681.42 428.306 1682 428.966C1682.59 429.614 1682.89 430.538 1682.89 431.738C1682.89 432.326 1682.81 432.854 1682.67 433.322C1682.54 433.778 1682.38 434.174 1682.18 434.51C1681.99 434.846 1681.69 435.326 1681.28 435.95L1677.94 441.062H1682.54V442.682H1675.67V441.314ZM1688.47 438.776H1684.24V436.76L1688.04 428.102H1690.31V437.066H1691.95V438.776H1690.31V442.682H1688.47V438.776ZM1688.47 437.066V430.442L1686.1 437.066H1688.47Z" fill="white"/>
<mask id="path-9-inside-3_124_1282" fill="white">
<path fill-rule="evenodd" clip-rule="evenodd" d="M965.343 368.343C963 370.686 963 374.458 963 382V402.295C963 409.838 963 413.609 965.343 415.952C967.686 418.295 971.458 418.295 979 418.295H1002.86C1004.24 418.295 1004.93 418.295 1005.44 418.401C1006.21 418.562 1006.08 418.516 1006.78 418.888C1007.23 419.132 1008.51 420.208 1011.08 422.36C1013.05 424.008 1015.57 425 1018.33 425C1021.09 425 1023.62 424.008 1025.59 422.36C1028.15 420.208 1029.44 419.132 1029.89 418.888C1030.59 418.516 1030.46 418.562 1031.23 418.401C1031.74 418.295 1032.43 418.295 1033.81 418.295H1059C1066.54 418.295 1070.31 418.295 1072.66 415.952C1075 413.609 1075 409.838 1075 402.295V382C1075 374.458 1075 370.686 1072.66 368.343C1070.31 366 1066.54 366 1059 366H979C971.458 366 967.686 366 965.343 368.343Z"/>
</mask>
<path fill-rule="evenodd" clip-rule="evenodd" d="M965.343 368.343C963 370.686 963 374.458 963 382V402.295C963 409.838 963 413.609 965.343 415.952C967.686 418.295 971.458 418.295 979 418.295H1002.86C1004.24 418.295 1004.93 418.295 1005.44 418.401C1006.21 418.562 1006.08 418.516 1006.78 418.888C1007.23 419.132 1008.51 420.208 1011.08 422.36C1013.05 424.008 1015.57 425 1018.33 425C1021.09 425 1023.62 424.008 1025.59 422.36C1028.15 420.208 1029.44 419.132 1029.89 418.888C1030.59 418.516 1030.46 418.562 1031.23 418.401C1031.74 418.295 1032.43 418.295 1033.81 418.295H1059C1066.54 418.295 1070.31 418.295 1072.66 415.952C1075 413.609 1075 409.838 1075 402.295V382C1075 374.458 1075 370.686 1072.66 368.343C1070.31 366 1066.54 366 1059 366H979C971.458 366 967.686 366 965.343 368.343Z" fill="black"/>
<path d="M965.343 415.952L966.05 415.245L966.05 415.245L965.343 415.952ZM1072.66 415.952L1071.95 415.245L1071.95 415.245L1072.66 415.952ZM1025.59 422.36L1026.23 423.126L1025.59 422.36ZM1029.89 418.888L1030.36 419.77L1029.89 418.888ZM1031.23 418.401L1031.03 417.422L1031.23 418.401ZM1005.44 418.401L1005.23 419.38L1005.44 418.401ZM1011.08 422.36L1010.44 423.126L1011.08 422.36ZM1006.78 418.888L1006.3 419.77L1006.78 418.888ZM964 382C964 378.201 964.002 375.451 964.284 373.355C964.562 371.287 965.095 370.005 966.05 369.05L964.636 367.636C963.248 369.024 962.61 370.799 962.302 373.089C961.998 375.349 962 378.257 962 382H964ZM964 402.295V382H962V402.295H964ZM966.05 415.245C965.095 414.29 964.562 413.008 964.284 410.94C964.002 408.844 964 406.095 964 402.295H962C962 406.038 961.998 408.946 962.302 411.207C962.61 413.496 963.248 415.271 964.636 416.659L966.05 415.245ZM979 417.295C975.2 417.295 972.451 417.293 970.355 417.011C968.287 416.733 967.005 416.2 966.05 415.245L964.636 416.659C966.024 418.048 967.799 418.686 970.089 418.994C972.349 419.298 975.257 419.295 979 419.295V417.295ZM1002.86 417.295H979V419.295H1002.86V417.295ZM1018.33 424C1015.82 424 1013.51 423.097 1011.72 421.594L1010.44 423.126C1012.58 424.92 1015.33 426 1018.33 426V424ZM1024.94 421.594C1023.15 423.097 1020.85 424 1018.33 424V426C1021.34 426 1024.09 424.92 1026.23 423.126L1024.94 421.594ZM1059 417.295H1033.81V419.295H1059V417.295ZM1071.95 415.245C1070.99 416.2 1069.71 416.733 1067.64 417.011C1065.55 417.293 1062.8 417.295 1059 417.295V419.295C1062.74 419.295 1065.65 419.298 1067.91 418.994C1070.2 418.686 1071.98 418.048 1073.36 416.659L1071.95 415.245ZM1074 402.295C1074 406.095 1074 408.844 1073.72 410.94C1073.44 413.008 1072.9 414.29 1071.95 415.245L1073.36 416.659C1074.75 415.271 1075.39 413.496 1075.7 411.207C1076 408.946 1076 406.038 1076 402.295H1074ZM1074 382V402.295H1076V382H1074ZM1071.95 369.05C1072.9 370.005 1073.44 371.287 1073.72 373.355C1074 375.451 1074 378.2 1074 382H1076C1076 378.257 1076 375.349 1075.7 373.089C1075.39 370.799 1074.75 369.024 1073.36 367.636L1071.95 369.05ZM1059 367C1062.8 367 1065.55 367.002 1067.64 367.284C1069.71 367.562 1070.99 368.095 1071.95 369.05L1073.36 367.636C1071.98 366.248 1070.2 365.61 1067.91 365.302C1065.65 364.998 1062.74 365 1059 365V367ZM979 367H1059V365H979V367ZM966.05 369.05C967.005 368.095 968.287 367.562 970.355 367.284C972.451 367.002 975.2 367 979 367V365C975.257 365 972.349 364.998 970.089 365.302C967.799 365.61 966.024 366.248 964.636 367.636L966.05 369.05ZM1026.23 423.126C1027.52 422.048 1028.47 421.247 1029.16 420.684C1029.89 420.093 1030.24 419.836 1030.36 419.77L1029.42 418.007C1029.09 418.185 1028.57 418.588 1027.9 419.133C1027.19 419.707 1026.22 420.52 1024.94 421.594L1026.23 423.126ZM1033.81 417.295C1032.48 417.295 1031.66 417.29 1031.03 417.422L1031.44 419.38C1031.81 419.301 1032.37 419.295 1033.81 419.295V417.295ZM1030.36 419.77C1030.76 419.557 1030.81 419.529 1030.87 419.505C1030.94 419.482 1030.99 419.472 1031.44 419.38L1031.03 417.422C1030.7 417.491 1030.43 417.539 1030.19 417.626C1029.95 417.713 1029.72 417.848 1029.42 418.007L1030.36 419.77ZM1002.86 419.295C1004.3 419.295 1004.85 419.301 1005.23 419.38L1005.64 417.422C1005.01 417.29 1004.18 417.295 1002.86 417.295V419.295ZM1011.72 421.594C1010.44 420.52 1009.47 419.707 1008.77 419.133C1008.1 418.588 1007.58 418.185 1007.25 418.007L1006.3 419.77C1006.43 419.836 1006.78 420.093 1007.5 420.684C1008.2 421.247 1009.15 422.048 1010.44 423.126L1011.72 421.594ZM1005.23 419.38C1005.67 419.472 1005.73 419.482 1005.79 419.505C1005.86 419.529 1005.91 419.557 1006.3 419.77L1007.25 418.007C1006.95 417.848 1006.72 417.713 1006.48 417.626C1006.24 417.539 1005.97 417.491 1005.64 417.422L1005.23 419.38Z" fill="black" mask="url(#path-9-inside-3_124_1282)"/>
<path opacity="0.8" d="M974.898 407.935C973.858 407.935 973.126 407.628 972.701 407.012C972.276 406.388 972.064 405.53 972.064 404.438V400.72C972.064 399.568 972.272 398.692 972.688 398.094C973.104 397.496 973.841 397.197 974.898 397.197C975.843 397.197 976.519 397.453 976.926 397.964C977.342 398.476 977.55 399.23 977.55 400.226V401.058H976.159V400.317C976.159 399.832 976.137 399.459 976.094 399.199C976.051 398.939 975.938 398.731 975.756 398.575C975.583 398.419 975.301 398.341 974.911 398.341C974.512 398.341 974.213 398.428 974.014 398.601C973.823 398.766 973.698 399 973.637 399.303C973.576 399.598 973.546 399.997 973.546 400.499V404.672C973.546 405.21 973.589 405.63 973.676 405.933C973.763 406.237 973.901 406.453 974.092 406.583C974.291 406.713 974.564 406.778 974.911 406.778C975.284 406.778 975.561 406.696 975.743 406.531C975.925 406.367 976.038 406.141 976.081 405.855C976.133 405.569 976.159 405.179 976.159 404.685V403.905H977.55V404.685C977.55 405.734 977.351 406.54 976.952 407.103C976.562 407.658 975.877 407.935 974.898 407.935ZM980.106 398.38H978.325V397.288H983.304V398.38H981.575V407.818H980.106V398.38ZM984.319 397.288H986.932C987.842 397.288 988.501 397.535 988.908 398.029C989.324 398.523 989.532 399.247 989.532 400.2C989.532 401.058 989.311 401.726 988.869 402.202C988.427 402.679 987.786 402.917 986.945 402.917H985.788V407.818H984.319V397.288ZM986.464 401.864C986.898 401.864 987.231 401.817 987.465 401.721C987.708 401.626 987.881 401.461 987.985 401.227C988.089 400.993 988.141 400.655 988.141 400.213C988.141 399.676 988.102 399.282 988.024 399.03C987.946 398.779 987.79 398.601 987.556 398.497C987.331 398.393 986.971 398.341 986.477 398.341H985.788V401.864H986.464ZM990.384 406.271H991.775V407.818H990.384V406.271ZM997.39 399.108C997.373 399.134 997.109 399.195 996.597 399.29C996.095 399.386 995.748 399.451 995.557 399.485V398.432C996.615 398.181 997.338 397.8 997.728 397.288H998.781V407.818H997.39V399.108ZM1000.84 408.923C1001.08 408.845 1001.26 408.707 1001.39 408.507C1001.53 408.317 1001.6 408.087 1001.6 407.818H1000.85V406.323H1002.28V407.792C1002.28 408.252 1002.19 408.616 1001.99 408.884C1001.79 409.162 1001.48 409.374 1001.06 409.521L1000.84 408.923ZM1006.54 397.288H1012.33V407.818H1010.87V398.341H1008.01V407.818H1006.54V397.288ZM1016.67 407.935C1015.64 407.935 1014.89 407.645 1014.44 407.064C1014 406.475 1013.78 405.626 1013.78 404.516V400.525C1013.78 399.433 1014.01 398.606 1014.46 398.042C1014.91 397.479 1015.64 397.197 1016.67 397.197C1017.69 397.197 1018.42 397.483 1018.86 398.055C1019.31 398.619 1019.54 399.442 1019.54 400.525V404.529C1019.54 405.621 1019.31 406.462 1018.86 407.051C1018.41 407.641 1017.68 407.935 1016.67 407.935ZM1016.67 406.778C1017.21 406.778 1017.58 406.618 1017.77 406.297C1017.96 405.977 1018.06 405.491 1018.06 404.841V400.226C1018.06 399.585 1017.96 399.113 1017.77 398.809C1017.58 398.497 1017.21 398.341 1016.67 398.341C1016.11 398.341 1015.74 398.497 1015.55 398.809C1015.36 399.113 1015.26 399.585 1015.26 400.226V404.841C1015.26 405.491 1015.36 405.977 1015.55 406.297C1015.74 406.618 1016.11 406.778 1016.67 406.778ZM1020.31 406.765H1020.79C1021.09 406.514 1021.34 406.198 1021.54 405.816C1021.75 405.435 1021.93 404.82 1022.09 403.97C1022.25 403.112 1022.37 401.925 1022.44 400.408L1022.61 397.288H1027.02V406.765H1028.03V409.729H1026.9L1026.78 407.818H1021.56L1021.44 409.729H1020.31V406.765ZM1025.56 406.765V398.38H1023.86L1023.75 400.759C1023.69 402.224 1023.59 403.351 1023.44 404.139C1023.29 404.928 1023.12 405.487 1022.93 405.816C1022.74 406.137 1022.48 406.453 1022.15 406.765H1025.56ZM1030.08 398.406H1028.38V397.288H1031.55V401.669H1031.95C1032.75 401.669 1033.39 401.76 1033.88 401.942C1034.37 402.124 1034.74 402.436 1034.98 402.878C1035.23 403.32 1035.35 403.94 1035.35 404.737C1035.35 405.812 1035.08 406.596 1034.54 407.09C1034.01 407.576 1033.18 407.818 1032.03 407.818H1030.08V398.406ZM1032.05 406.765C1032.51 406.765 1032.88 406.713 1033.15 406.609C1033.42 406.505 1033.62 406.306 1033.75 406.011C1033.89 405.717 1033.96 405.288 1033.96 404.724C1033.96 404.239 1033.9 403.853 1033.77 403.567C1033.65 403.281 1033.45 403.073 1033.16 402.943C1032.89 402.805 1032.5 402.735 1032.01 402.735H1031.55V406.765H1032.05ZM1036.51 397.288H1040.59V398.38H1037.98V401.864H1040.1V402.904H1037.98V406.765H1040.62V407.818H1036.51V397.288ZM1044.1 407.935C1043.26 407.935 1042.62 407.701 1042.18 407.233C1041.75 406.757 1041.53 406.089 1041.53 405.231V404.88H1042.91C1042.91 405.054 1042.91 405.175 1042.92 405.244C1042.94 405.738 1043.03 406.12 1043.19 406.388C1043.37 406.648 1043.67 406.778 1044.1 406.778C1044.57 406.778 1044.89 406.618 1045.05 406.297C1045.23 405.977 1045.31 405.496 1045.31 404.854C1045.31 404.256 1045.18 403.788 1044.92 403.45C1044.66 403.112 1044.21 402.922 1043.57 402.878C1043.5 402.87 1043.37 402.865 1043.17 402.865V401.747C1043.36 401.747 1043.49 401.743 1043.55 401.734C1044.2 401.7 1044.65 401.535 1044.91 401.24C1045.18 400.937 1045.31 400.495 1045.31 399.914C1045.31 399.412 1045.21 399.022 1045.01 398.744C1044.82 398.467 1044.49 398.328 1044.04 398.328C1043.6 398.328 1043.27 398.467 1043.06 398.744C1042.86 399.013 1042.74 399.399 1042.7 399.901V400.239H1041.31V399.888C1041.31 399.048 1041.54 398.389 1042.01 397.912C1042.48 397.436 1043.14 397.197 1043.99 397.197C1044.85 397.197 1045.51 397.44 1045.99 397.925C1046.47 398.411 1046.7 399.074 1046.7 399.914C1046.7 400.538 1046.57 401.054 1046.3 401.461C1046.03 401.86 1045.66 402.124 1045.2 402.254C1045.67 402.41 1046.04 402.709 1046.3 403.151C1046.57 403.585 1046.7 404.152 1046.7 404.854C1046.7 406.908 1045.84 407.935 1044.1 407.935ZM1047.37 406.765H1047.85C1048.16 406.514 1048.41 406.198 1048.61 405.816C1048.82 405.435 1049 404.82 1049.15 403.97C1049.32 403.112 1049.44 401.925 1049.51 400.408L1049.67 397.288H1054.08V406.765H1055.1V409.729H1053.96L1053.85 407.818H1048.62L1048.5 409.729H1047.37V406.765ZM1052.63 406.765V398.38H1050.92L1050.82 400.759C1050.76 402.224 1050.65 403.351 1050.51 404.139C1050.36 404.928 1050.19 405.487 1050 405.816C1049.81 406.137 1049.55 406.453 1049.22 406.765H1052.63ZM1058.89 406.83L1061.56 402.657C1061.69 402.449 1061.78 402.319 1061.82 402.267C1062.13 401.782 1062.35 401.379 1062.49 401.058C1062.62 400.738 1062.69 400.352 1062.69 399.901C1062.69 399.399 1062.61 399.013 1062.45 398.744C1062.28 398.476 1062.01 398.341 1061.64 398.341C1060.81 398.341 1060.39 398.987 1060.39 400.278V400.629H1059V400.265C1059 399.277 1059.21 398.519 1059.61 397.99C1060.02 397.462 1060.67 397.197 1061.58 397.197C1062.41 397.197 1063.04 397.436 1063.46 397.912C1063.89 398.38 1064.1 399.048 1064.1 399.914C1064.1 400.339 1064.05 400.72 1063.94 401.058C1063.85 401.388 1063.73 401.674 1063.59 401.916C1063.45 402.159 1063.24 402.506 1062.94 402.956L1060.52 406.648H1063.85V407.818H1058.89V406.83Z" fill="white"/>
<path d="M979.683 376.102H981.681V390.682H979.683V376.102ZM984.148 376.102H986.146V390.682H984.148V376.102ZM988.612 376.102H990.61V390.682H988.612V376.102ZM997.083 376.102H999.117V382.582H999.873L1002.48 376.102H1004.52L1001.64 383.032L1004.88 390.682H1002.84L999.891 383.572H999.117V390.682H997.083V376.102ZM1006.22 376.102H1009.57C1010.89 376.102 1011.87 376.402 1012.51 377.002C1013.14 377.59 1013.46 378.508 1013.46 379.756C1013.46 381.616 1012.76 382.642 1011.37 382.834C1012.24 383.038 1012.87 383.446 1013.26 384.058C1013.66 384.658 1013.86 385.48 1013.86 386.524C1013.86 387.832 1013.54 388.852 1012.92 389.584C1012.31 390.316 1011.37 390.682 1010.11 390.682H1006.22V376.102ZM1009.46 382.186C1010.3 382.186 1010.89 382.006 1011.21 381.646C1011.53 381.274 1011.7 380.644 1011.7 379.756C1011.7 379.108 1011.59 378.634 1011.39 378.334C1011.2 378.022 1010.9 377.824 1010.51 377.74C1010.11 377.656 1009.52 377.614 1008.74 377.614H1008.26V382.186H1009.46ZM1009.63 389.224C1010.23 389.224 1010.69 389.134 1011.01 388.954C1011.35 388.762 1011.58 388.474 1011.71 388.09C1011.85 387.706 1011.91 387.184 1011.91 386.524C1011.91 385.588 1011.72 384.892 1011.34 384.436C1010.95 383.968 1010.33 383.734 1009.46 383.734H1008.26V389.224H1009.63ZM1015.41 388.54H1017.34V390.682H1015.41V388.54ZM1022.77 389.314L1026.48 383.536C1026.66 383.248 1026.78 383.068 1026.84 382.996C1027.26 382.324 1027.57 381.766 1027.76 381.322C1027.95 380.878 1028.05 380.344 1028.05 379.72C1028.05 379.024 1027.93 378.49 1027.7 378.118C1027.48 377.746 1027.1 377.56 1026.59 377.56C1025.44 377.56 1024.86 378.454 1024.86 380.242V380.728H1022.93V380.224C1022.93 378.856 1023.22 377.806 1023.78 377.074C1024.34 376.342 1025.25 375.976 1026.5 375.976C1027.65 375.976 1028.52 376.306 1029.11 376.966C1029.7 377.614 1029.99 378.538 1029.99 379.738C1029.99 380.326 1029.92 380.854 1029.77 381.322C1029.64 381.778 1029.48 382.174 1029.29 382.51C1029.1 382.846 1028.8 383.326 1028.39 383.95L1025.04 389.062H1029.65V390.682H1022.77V389.314ZM1035.29 390.844C1034.09 390.844 1033.19 390.454 1032.57 389.674C1031.97 388.894 1031.67 387.85 1031.67 386.542V380.26C1031.67 378.928 1031.97 377.884 1032.56 377.128C1033.16 376.36 1034.07 375.976 1035.29 375.976C1036.5 375.976 1037.4 376.36 1037.99 377.128C1038.59 377.884 1038.89 378.928 1038.89 380.26V386.542C1038.89 387.862 1038.59 388.912 1037.99 389.692C1037.39 390.46 1036.49 390.844 1035.29 390.844ZM1035.29 389.26C1036.4 389.26 1036.95 388.36 1036.95 386.56V380.242C1036.95 379.414 1036.83 378.76 1036.59 378.28C1036.36 377.788 1035.93 377.542 1035.29 377.542C1034.66 377.542 1034.22 377.788 1033.98 378.28C1033.74 378.76 1033.62 379.414 1033.62 380.242V386.56C1033.62 388.36 1034.18 389.26 1035.29 389.26ZM1040.67 389.314L1044.38 383.536C1044.56 383.248 1044.68 383.068 1044.74 382.996C1045.16 382.324 1045.46 381.766 1045.65 381.322C1045.85 380.878 1045.94 380.344 1045.94 379.72C1045.94 379.024 1045.83 378.49 1045.6 378.118C1045.37 377.746 1045 377.56 1044.48 377.56C1043.33 377.56 1042.76 378.454 1042.76 380.242V380.728H1040.83V380.224C1040.83 378.856 1041.11 377.806 1041.68 377.074C1042.24 376.342 1043.15 375.976 1044.39 375.976C1045.55 375.976 1046.42 376.306 1047 376.966C1047.59 377.614 1047.89 378.538 1047.89 379.738C1047.89 380.326 1047.81 380.854 1047.67 381.322C1047.54 381.778 1047.38 382.174 1047.18 382.51C1046.99 382.846 1046.69 383.326 1046.28 383.95L1042.94 389.062H1047.54V390.682H1040.67V389.314ZM1053.47 386.776H1049.24V384.76L1053.04 376.102H1055.31V385.066H1056.95V386.776H1055.31V390.682H1053.47V386.776ZM1053.47 385.066V378.442L1051.1 385.066H1053.47Z" fill="white"/>
<mask id="path-13-inside-4_124_1282" fill="white">
<path fill-rule="evenodd" clip-rule="evenodd" d="M2100.34 420.343C2098 422.686 2098 426.458 2098 434V454.295C2098 461.838 2098 465.609 2100.34 467.952C2102.69 470.295 2106.46 470.295 2114 470.295H2137.86C2139.24 470.295 2139.93 470.295 2140.44 470.401C2141.21 470.562 2141.08 470.516 2141.78 470.888C2142.23 471.132 2143.51 472.208 2146.08 474.36C2148.05 476.008 2150.57 477 2153.33 477C2156.09 477 2158.62 476.008 2160.59 474.36C2163.15 472.208 2164.44 471.132 2164.89 470.888C2165.59 470.516 2165.46 470.562 2166.23 470.401C2166.74 470.295 2167.43 470.295 2168.81 470.295H2194C2201.54 470.295 2205.31 470.295 2207.66 467.952C2210 465.609 2210 461.838 2210 454.295V434C2210 426.458 2210 422.686 2207.66 420.343C2205.31 418 2201.54 418 2194 418H2114C2106.46 418 2102.69 418 2100.34 420.343Z"/>
</mask>
<path fill-rule="evenodd" clip-rule="evenodd" d="M2100.34 420.343C2098 422.686 2098 426.458 2098 434V454.295C2098 461.838 2098 465.609 2100.34 467.952C2102.69 470.295 2106.46 470.295 2114 470.295H2137.86C2139.24 470.295 2139.93 470.295 2140.44 470.401C2141.21 470.562 2141.08 470.516 2141.78 470.888C2142.23 471.132 2143.51 472.208 2146.08 474.36C2148.05 476.008 2150.57 477 2153.33 477C2156.09 477 2158.62 476.008 2160.59 474.36C2163.15 472.208 2164.44 471.132 2164.89 470.888C2165.59 470.516 2165.46 470.562 2166.23 470.401C2166.74 470.295 2167.43 470.295 2168.81 470.295H2194C2201.54 470.295 2205.31 470.295 2207.66 467.952C2210 465.609 2210 461.838 2210 454.295V434C2210 426.458 2210 422.686 2207.66 420.343C2205.31 418 2201.54 418 2194 418H2114C2106.46 418 2102.69 418 2100.34 420.343Z" fill="black"/>
<path d="M2100.34 467.952L2101.05 467.245L2101.05 467.245L2100.34 467.952ZM2207.66 467.952L2206.95 467.245L2206.95 467.245L2207.66 467.952ZM2160.59 474.36L2161.23 475.126L2160.59 474.36ZM2164.89 470.888L2165.36 471.77L2164.89 470.888ZM2166.23 470.401L2166.03 469.422L2166.23 470.401ZM2140.44 470.401L2140.23 471.38L2140.44 470.401ZM2146.08 474.36L2145.44 475.126L2146.08 474.36ZM2141.78 470.888L2141.3 471.77L2141.78 470.888ZM2099 434C2099 430.201 2099 427.451 2099.28 425.355C2099.56 423.287 2100.1 422.005 2101.05 421.05L2099.64 419.636C2098.25 421.024 2097.61 422.799 2097.3 425.089C2097 427.349 2097 430.257 2097 434H2099ZM2099 454.295V434H2097V454.295H2099ZM2101.05 467.245C2100.1 466.29 2099.56 465.008 2099.28 462.94C2099 460.844 2099 458.095 2099 454.295H2097C2097 458.038 2097 460.946 2097.3 463.207C2097.61 465.496 2098.25 467.271 2099.64 468.659L2101.05 467.245ZM2114 469.295C2110.2 469.295 2107.45 469.293 2105.36 469.011C2103.29 468.733 2102.01 468.2 2101.05 467.245L2099.64 468.659C2101.02 470.048 2102.8 470.686 2105.09 470.994C2107.35 471.298 2110.26 471.295 2114 471.295V469.295ZM2137.86 469.295H2114V471.295H2137.86V469.295ZM2153.33 476C2150.82 476 2148.51 475.097 2146.72 473.594L2145.44 475.126C2147.58 476.92 2150.33 478 2153.33 478V476ZM2159.94 473.594C2158.15 475.097 2155.85 476 2153.33 476V478C2156.34 478 2159.09 476.92 2161.23 475.126L2159.94 473.594ZM2194 469.295H2168.81V471.295H2194V469.295ZM2206.95 467.245C2205.99 468.2 2204.71 468.733 2202.64 469.011C2200.55 469.293 2197.8 469.295 2194 469.295V471.295C2197.74 471.295 2200.65 471.298 2202.91 470.994C2205.2 470.686 2206.98 470.048 2208.36 468.659L2206.95 467.245ZM2209 454.295C2209 458.095 2209 460.844 2208.72 462.94C2208.44 465.008 2207.9 466.29 2206.95 467.245L2208.36 468.659C2209.75 467.271 2210.39 465.496 2210.7 463.207C2211 460.946 2211 458.038 2211 454.295H2209ZM2209 434V454.295H2211V434H2209ZM2206.95 421.05C2207.9 422.005 2208.44 423.287 2208.72 425.355C2209 427.451 2209 430.2 2209 434H2211C2211 430.257 2211 427.349 2210.7 425.089C2210.39 422.799 2209.75 421.024 2208.36 419.636L2206.95 421.05ZM2194 419C2197.8 419 2200.55 419.002 2202.64 419.284C2204.71 419.562 2205.99 420.095 2206.95 421.05L2208.36 419.636C2206.98 418.248 2205.2 417.61 2202.91 417.302C2200.65 416.998 2197.74 417 2194 417V419ZM2114 419H2194V417H2114V419ZM2101.05 421.05C2102.01 420.095 2103.29 419.562 2105.36 419.284C2107.45 419.002 2110.2 419 2114 419V417C2110.26 417 2107.35 416.998 2105.09 417.302C2102.8 417.61 2101.02 418.248 2099.64 419.636L2101.05 421.05ZM2161.23 475.126C2162.52 474.048 2163.47 473.247 2164.16 472.684C2164.89 472.093 2165.24 471.836 2165.36 471.77L2164.42 470.007C2164.09 470.185 2163.57 470.588 2162.9 471.133C2162.19 471.707 2161.22 472.52 2159.94 473.594L2161.23 475.126ZM2168.81 469.295C2167.48 469.295 2166.66 469.29 2166.03 469.422L2166.44 471.38C2166.81 471.301 2167.37 471.295 2168.81 471.295V469.295ZM2165.36 471.77C2165.76 471.557 2165.81 471.529 2165.87 471.505C2165.94 471.482 2165.99 471.472 2166.44 471.38L2166.03 469.422C2165.7 469.491 2165.43 469.539 2165.19 469.626C2164.95 469.713 2164.72 469.848 2164.42 470.007L2165.36 471.77ZM2137.86 471.295C2139.3 471.295 2139.85 471.301 2140.23 471.38L2140.64 469.422C2140.01 469.29 2139.18 469.295 2137.86 469.295V471.295ZM2146.72 473.594C2145.44 472.52 2144.47 471.707 2143.77 471.133C2143.1 470.588 2142.58 470.185 2142.25 470.007L2141.3 471.77C2141.43 471.836 2141.78 472.093 2142.5 472.684C2143.2 473.247 2144.15 474.048 2145.44 475.126L2146.72 473.594ZM2140.23 471.38C2140.67 471.472 2140.73 471.482 2140.79 471.505C2140.86 471.529 2140.91 471.557 2141.3 471.77L2142.25 470.007C2141.95 469.848 2141.72 469.713 2141.48 469.626C2141.24 469.539 2140.97 469.491 2140.64 469.422L2140.23 471.38Z" fill="black" mask="url(#path-13-inside-4_124_1282)"/>
<path opacity="0.8" d="M2109.87 459.935C2108.83 459.935 2108.1 459.628 2107.67 459.012C2107.25 458.388 2107.04 457.53 2107.04 456.438V452.72C2107.04 451.568 2107.25 450.692 2107.66 450.094C2108.08 449.496 2108.81 449.197 2109.87 449.197C2110.82 449.197 2111.49 449.453 2111.9 449.964C2112.32 450.476 2112.52 451.23 2112.52 452.226V453.058H2111.13V452.317C2111.13 451.832 2111.11 451.459 2111.07 451.199C2111.02 450.939 2110.91 450.731 2110.73 450.575C2110.56 450.419 2110.27 450.341 2109.88 450.341C2109.49 450.341 2109.19 450.428 2108.99 450.601C2108.8 450.766 2108.67 451 2108.61 451.303C2108.55 451.598 2108.52 451.997 2108.52 452.499V456.672C2108.52 457.21 2108.56 457.63 2108.65 457.933C2108.74 458.237 2108.87 458.453 2109.07 458.583C2109.26 458.713 2109.54 458.778 2109.88 458.778C2110.26 458.778 2110.53 458.696 2110.72 458.531C2110.9 458.367 2111.01 458.141 2111.05 457.855C2111.11 457.569 2111.13 457.179 2111.13 456.685V455.905H2112.52V456.685C2112.52 457.734 2112.32 458.54 2111.93 459.103C2111.54 459.658 2110.85 459.935 2109.87 459.935ZM2115.08 450.38H2113.3V449.288H2118.28V450.38H2116.55V459.818H2115.08V450.38ZM2119.29 449.288H2121.91C2122.82 449.288 2123.47 449.535 2123.88 450.029C2124.3 450.523 2124.51 451.247 2124.51 452.2C2124.51 453.058 2124.28 453.726 2123.84 454.202C2123.4 454.679 2122.76 454.917 2121.92 454.917H2120.76V459.818H2119.29V449.288ZM2121.44 453.864C2121.87 453.864 2122.2 453.817 2122.44 453.721C2122.68 453.626 2122.85 453.461 2122.96 453.227C2123.06 452.993 2123.11 452.655 2123.11 452.213C2123.11 451.676 2123.08 451.282 2123 451.03C2122.92 450.779 2122.76 450.601 2122.53 450.497C2122.3 450.393 2121.94 450.341 2121.45 450.341H2120.76V453.864H2121.44ZM2125.36 458.271H2126.75V459.818H2125.36V458.271ZM2130.67 458.83L2133.35 454.657C2133.48 454.449 2133.57 454.319 2133.61 454.267C2133.91 453.782 2134.14 453.379 2134.27 453.058C2134.41 452.738 2134.48 452.352 2134.48 451.901C2134.48 451.399 2134.4 451.013 2134.24 450.744C2134.07 450.476 2133.8 450.341 2133.43 450.341C2132.6 450.341 2132.18 450.987 2132.18 452.278V452.629H2130.79V452.265C2130.79 451.277 2130.99 450.519 2131.4 449.99C2131.81 449.462 2132.46 449.197 2133.36 449.197C2134.2 449.197 2134.82 449.436 2135.25 449.912C2135.67 450.38 2135.89 451.048 2135.89 451.914C2135.89 452.339 2135.83 452.72 2135.73 453.058C2135.64 453.388 2135.52 453.674 2135.38 453.916C2135.24 454.159 2135.02 454.506 2134.73 454.956L2132.31 458.648H2135.64V459.818H2130.67V458.83ZM2136.87 460.923C2137.1 460.845 2137.28 460.707 2137.41 460.507C2137.55 460.317 2137.62 460.087 2137.62 459.818H2136.88V458.323H2138.31V459.792C2138.31 460.252 2138.21 460.616 2138.01 460.884C2137.81 461.162 2137.51 461.374 2137.09 461.521L2136.87 460.923ZM2142.56 449.288H2148.36V459.818H2146.89V450.341H2144.03V459.818H2142.56V449.288ZM2152.69 459.935C2151.66 459.935 2150.92 459.645 2150.47 459.064C2150.03 458.475 2149.81 457.626 2149.81 456.516V452.525C2149.81 451.433 2150.03 450.606 2150.48 450.042C2150.93 449.479 2151.67 449.197 2152.69 449.197C2153.72 449.197 2154.45 449.483 2154.89 450.055C2155.34 450.619 2155.57 451.442 2155.57 452.525V456.529C2155.57 457.621 2155.34 458.462 2154.89 459.051C2154.44 459.641 2153.71 459.935 2152.69 459.935ZM2152.69 458.778C2153.24 458.778 2153.61 458.618 2153.8 458.297C2153.99 457.977 2154.08 457.491 2154.08 456.841V452.226C2154.08 451.585 2153.99 451.113 2153.8 450.809C2153.61 450.497 2153.24 450.341 2152.69 450.341C2152.14 450.341 2151.77 450.497 2151.58 450.809C2151.38 451.113 2151.29 451.585 2151.29 452.226V456.841C2151.29 457.491 2151.38 457.977 2151.58 458.297C2151.77 458.618 2152.14 458.778 2152.69 458.778ZM2156.33 458.765H2156.82C2157.12 458.514 2157.37 458.198 2157.57 457.816C2157.78 457.435 2157.96 456.82 2158.12 455.97C2158.28 455.112 2158.4 453.925 2158.47 452.408L2158.64 449.288H2163.04V458.765H2164.06V461.729H2162.93L2162.81 459.818H2157.58L2157.47 461.729H2156.33V458.765ZM2161.59 458.765V450.38H2159.88L2159.78 452.759C2159.72 454.224 2159.61 455.351 2159.47 456.139C2159.32 456.928 2159.15 457.487 2158.96 457.816C2158.77 458.137 2158.51 458.453 2158.18 458.765H2161.59ZM2166.11 450.406H2164.41V449.288H2167.58V453.669H2167.98C2168.78 453.669 2169.42 453.76 2169.91 453.942C2170.4 454.124 2170.77 454.436 2171.01 454.878C2171.25 455.32 2171.37 455.94 2171.37 456.737C2171.37 457.812 2171.11 458.596 2170.57 459.09C2170.04 459.576 2169.2 459.818 2168.06 459.818H2166.11V450.406ZM2168.07 458.765C2168.54 458.765 2168.91 458.713 2169.18 458.609C2169.45 458.505 2169.65 458.306 2169.78 458.011C2169.91 457.717 2169.98 457.288 2169.98 456.724C2169.98 456.239 2169.92 455.853 2169.8 455.567C2169.68 455.281 2169.48 455.073 2169.19 454.943C2168.91 454.805 2168.53 454.735 2168.03 454.735H2167.58V458.765H2168.07ZM2172.54 449.288H2176.62V450.38H2174.01V453.864H2176.12V454.904H2174.01V458.765H2176.64V459.818H2172.54V449.288ZM2180.13 459.935C2179.29 459.935 2178.65 459.701 2178.21 459.233C2177.77 458.757 2177.56 458.089 2177.56 457.231V456.88H2178.94C2178.94 457.054 2178.94 457.175 2178.95 457.244C2178.97 457.738 2179.06 458.12 2179.22 458.388C2179.4 458.648 2179.7 458.778 2180.13 458.778C2180.6 458.778 2180.92 458.618 2181.08 458.297C2181.25 457.977 2181.34 457.496 2181.34 456.854C2181.34 456.256 2181.21 455.788 2180.95 455.45C2180.69 455.112 2180.24 454.922 2179.6 454.878C2179.53 454.87 2179.4 454.865 2179.2 454.865V453.747C2179.39 453.747 2179.51 453.743 2179.57 453.734C2180.22 453.7 2180.68 453.535 2180.94 453.24C2181.21 452.937 2181.34 452.495 2181.34 451.914C2181.34 451.412 2181.24 451.022 2181.04 450.744C2180.84 450.467 2180.52 450.328 2180.07 450.328C2179.62 450.328 2179.3 450.467 2179.09 450.744C2178.88 451.013 2178.76 451.399 2178.73 451.901V452.239H2177.34V451.888C2177.34 451.048 2177.57 450.389 2178.04 449.912C2178.51 449.436 2179.17 449.197 2180.01 449.197C2180.87 449.197 2181.54 449.44 2182.02 449.925C2182.49 450.411 2182.73 451.074 2182.73 451.914C2182.73 452.538 2182.6 453.054 2182.33 453.461C2182.06 453.86 2181.69 454.124 2181.22 454.254C2181.7 454.41 2182.07 454.709 2182.33 455.151C2182.6 455.585 2182.73 456.152 2182.73 456.854C2182.73 458.908 2181.87 459.935 2180.13 459.935ZM2183.4 458.765H2183.88C2184.19 458.514 2184.44 458.198 2184.64 457.816C2184.84 457.435 2185.03 456.82 2185.18 455.97C2185.35 455.112 2185.46 453.925 2185.53 452.408L2185.7 449.288H2190.11V458.765H2191.12V461.729H2189.99L2189.87 459.818H2184.65L2184.53 461.729H2183.4V458.765ZM2188.65 458.765V450.38H2186.95L2186.85 452.759C2186.79 454.224 2186.68 455.351 2186.53 456.139C2186.39 456.928 2186.22 457.487 2186.03 457.816C2185.84 458.137 2185.58 458.453 2185.25 458.765H2188.65ZM2194.91 458.83L2197.59 454.657C2197.72 454.449 2197.81 454.319 2197.85 454.267C2198.15 453.782 2198.37 453.379 2198.51 453.058C2198.65 452.738 2198.72 452.352 2198.72 451.901C2198.72 451.399 2198.64 451.013 2198.47 450.744C2198.31 450.476 2198.04 450.341 2197.67 450.341C2196.84 450.341 2196.42 450.987 2196.42 452.278V452.629H2195.03V452.265C2195.03 451.277 2195.23 450.519 2195.64 449.99C2196.05 449.462 2196.7 449.197 2197.6 449.197C2198.43 449.197 2199.06 449.436 2199.49 449.912C2199.91 450.38 2200.12 451.048 2200.12 451.914C2200.12 452.339 2200.07 452.72 2199.97 453.058C2199.87 453.388 2199.76 453.674 2199.62 453.916C2199.48 454.159 2199.26 454.506 2198.97 454.956L2196.55 458.648H2199.88V459.818H2194.91V458.83Z" fill="white"/>
<path d="M2114.68 428.102H2116.68V442.682H2114.68V428.102ZM2119.15 428.102H2121.15V442.682H2119.15V428.102ZM2123.61 428.102H2125.61V442.682H2123.61V428.102ZM2132.08 428.102H2134.12V434.582H2134.87L2137.48 428.102H2139.52L2136.64 435.032L2139.88 442.682H2137.84L2134.89 435.572H2134.12V442.682H2132.08V428.102ZM2141.22 428.102H2144.57C2145.89 428.102 2146.87 428.402 2147.51 429.002C2148.14 429.59 2148.46 430.508 2148.46 431.756C2148.46 433.616 2147.76 434.642 2146.37 434.834C2147.24 435.038 2147.87 435.446 2148.26 436.058C2148.66 436.658 2148.86 437.48 2148.86 438.524C2148.86 439.832 2148.54 440.852 2147.92 441.584C2147.31 442.316 2146.37 442.682 2145.11 442.682H2141.22V428.102ZM2144.46 434.186C2145.3 434.186 2145.89 434.006 2146.21 433.646C2146.53 433.274 2146.7 432.644 2146.7 431.756C2146.7 431.108 2146.59 430.634 2146.39 430.334C2146.2 430.022 2145.9 429.824 2145.51 429.74C2145.11 429.656 2144.52 429.614 2143.74 429.614H2143.26V434.186H2144.46ZM2144.63 441.224C2145.23 441.224 2145.69 441.134 2146.01 440.954C2146.35 440.762 2146.58 440.474 2146.71 440.09C2146.85 439.706 2146.91 439.184 2146.91 438.524C2146.91 437.588 2146.72 436.892 2146.34 436.436C2145.95 435.968 2145.33 435.734 2144.46 435.734H2143.26V441.224H2144.63ZM2150.41 440.54H2152.34V442.682H2150.41V440.54ZM2157.77 441.314L2161.48 435.536C2161.66 435.248 2161.78 435.068 2161.84 434.996C2162.26 434.324 2162.57 433.766 2162.76 433.322C2162.95 432.878 2163.05 432.344 2163.05 431.72C2163.05 431.024 2162.93 430.49 2162.7 430.118C2162.48 429.746 2162.1 429.56 2161.59 429.56C2160.44 429.56 2159.86 430.454 2159.86 432.242V432.728H2157.93V432.224C2157.93 430.856 2158.22 429.806 2158.78 429.074C2159.34 428.342 2160.25 427.976 2161.5 427.976C2162.65 427.976 2163.52 428.306 2164.11 428.966C2164.7 429.614 2164.99 430.538 2164.99 431.738C2164.99 432.326 2164.92 432.854 2164.77 433.322C2164.64 433.778 2164.48 434.174 2164.29 434.51C2164.1 434.846 2163.8 435.326 2163.39 435.95L2160.04 441.062H2164.65V442.682H2157.77V441.314ZM2170.29 442.844C2169.09 442.844 2168.19 442.454 2167.57 441.674C2166.97 440.894 2166.67 439.85 2166.67 438.542V432.26C2166.67 430.928 2166.97 429.884 2167.56 429.128C2168.16 428.36 2169.07 427.976 2170.29 427.976C2171.5 427.976 2172.4 428.36 2172.99 429.128C2173.59 429.884 2173.89 430.928 2173.89 432.26V438.542C2173.89 439.862 2173.59 440.912 2172.99 441.692C2172.39 442.46 2171.49 442.844 2170.29 442.844ZM2170.29 441.26C2171.4 441.26 2171.95 440.36 2171.95 438.56V432.242C2171.95 431.414 2171.83 430.76 2171.59 430.28C2171.36 429.788 2170.93 429.542 2170.29 429.542C2169.66 429.542 2169.22 429.788 2168.98 430.28C2168.74 430.76 2168.62 431.414 2168.62 432.242V438.56C2168.62 440.36 2169.18 441.26 2170.29 441.26ZM2175.67 441.314L2179.37 435.536C2179.55 435.248 2179.67 435.068 2179.73 434.996C2180.15 434.324 2180.46 433.766 2180.65 433.322C2180.84 432.878 2180.94 432.344 2180.94 431.72C2180.94 431.024 2180.83 430.49 2180.6 430.118C2180.37 429.746 2180 429.56 2179.48 429.56C2178.33 429.56 2177.75 430.454 2177.75 432.242V432.728H2175.83V432.224C2175.83 430.856 2176.11 429.806 2176.67 429.074C2177.24 428.342 2178.14 427.976 2179.39 427.976C2180.54 427.976 2181.41 428.306 2182 428.966C2182.59 429.614 2182.88 430.538 2182.88 431.738C2182.88 432.326 2182.81 432.854 2182.67 433.322C2182.54 433.778 2182.37 434.174 2182.18 434.51C2181.99 434.846 2181.69 435.326 2181.28 435.95L2177.93 441.062H2182.54V442.682H2175.67V441.314ZM2188.47 438.776H2184.24V436.76L2188.04 428.102H2190.31V437.066H2191.95V438.776H2190.31V442.682H2188.47V438.776ZM2188.47 437.066V430.442L2186.1 437.066H2188.47Z" fill="white"/>
</svg>
