<svg width="184" height="184" viewBox="0 0 184 184" fill="none" xmlns="http://www.w3.org/2000/svg">
<path d="M129.671 102.094L125.589 98.0115L124.095 103.588L129.671 102.094ZM54.4586 81.4231C54.1919 81.3516 53.9177 81.5099 53.8462 81.7767C53.7747 82.0434 53.933 82.3176 54.1998 82.389L54.4586 81.4231ZM125.454 100.446L54.4586 81.4231L54.1998 82.389L125.195 101.412L125.454 100.446Z" fill="white"/>
<path d="M84.7532 119.046C81.2015 118.094 77.872 116.452 74.9548 114.214C72.0376 111.975 69.5899 109.184 67.7514 106C65.9129 102.816 64.7196 99.3003 64.2397 95.6547C63.7597 92.0092 64.0025 88.3048 64.9542 84.7531C65.9059 81.2014 67.5478 77.8719 69.7862 74.9547C72.0246 72.0375 74.8157 69.5898 78.0001 67.7513C81.1845 65.9128 84.6998 64.7195 88.3454 64.2396C91.9909 63.7596 95.6953 64.0024 99.247 64.9541L92.0001 92L84.7532 119.046Z" fill="#E56543"/>
<line x1="81.5527" y1="129.059" x2="101.482" y2="54.6825" stroke="white" stroke-linecap="round"/>
<path d="M99.2468 64.9541C102.799 65.9058 106.128 67.5477 109.045 69.7861C111.962 72.0245 114.41 74.8156 116.249 78C118.087 81.1844 119.28 84.6997 119.76 88.3453C120.24 91.9908 119.997 95.6952 119.046 99.2469C118.094 102.799 116.452 106.128 114.214 109.045C111.975 111.962 109.184 114.41 106 116.249C102.815 118.087 99.3002 119.281 95.6546 119.76C92.0091 120.24 88.3047 119.998 84.753 119.046L91.9999 92L99.2468 64.9541Z" fill="#2C4B64"/>
<circle cx="92.0001" cy="92" r="27.5" transform="rotate(105 92.0001 92)" stroke="white" stroke-opacity="0.4"/>
<path d="M141.334 109.32C140.262 109.32 139.446 109.032 138.886 108.456C138.334 107.88 138.038 107.084 137.998 106.068C137.99 105.852 137.986 105.5 137.986 105.012C137.986 104.516 137.99 104.156 137.998 103.932C138.038 102.924 138.338 102.132 138.898 101.556C139.458 100.972 140.27 100.68 141.334 100.68C142.046 100.68 142.65 100.808 143.146 101.064C143.642 101.312 144.018 101.64 144.274 102.048C144.53 102.456 144.67 102.892 144.694 103.356V103.38C144.694 103.444 144.666 103.5 144.61 103.548C144.562 103.588 144.506 103.608 144.442 103.608H143.782C143.622 103.608 143.522 103.516 143.482 103.332C143.346 102.732 143.102 102.312 142.75 102.072C142.398 101.824 141.926 101.7 141.334 101.7C139.958 101.7 139.246 102.464 139.198 103.992C139.19 104.208 139.186 104.54 139.186 104.988C139.186 105.436 139.19 105.776 139.198 106.008C139.246 107.536 139.958 108.3 141.334 108.3C141.926 108.3 142.398 108.18 142.75 107.94C143.11 107.692 143.354 107.268 143.482 106.668C143.506 106.564 143.542 106.492 143.59 106.452C143.638 106.412 143.702 106.392 143.782 106.392H144.442C144.514 106.392 144.574 106.416 144.622 106.464C144.678 106.504 144.702 106.56 144.694 106.632C144.67 107.104 144.53 107.544 144.274 107.952C144.018 108.36 143.642 108.692 143.146 108.948C142.65 109.196 142.046 109.32 141.334 109.32Z" fill="white"/>
<path d="M76.1125 145.262C76.0325 145.262 75.9645 145.238 75.9085 145.19C75.8605 145.134 75.8365 145.066 75.8365 144.986V137.15C75.8365 137.062 75.8605 136.994 75.9085 136.946C75.9645 136.89 76.0325 136.862 76.1125 136.862H79.4005C80.2565 136.862 80.9005 137.066 81.3325 137.474C81.7645 137.882 81.9805 138.418 81.9805 139.082C81.9805 139.53 81.8765 139.902 81.6685 140.198C81.4685 140.494 81.2285 140.71 80.9485 140.846C81.2845 141.014 81.5685 141.274 81.8005 141.626C82.0325 141.978 82.1485 142.382 82.1485 142.838C82.1485 143.286 82.0445 143.694 81.8365 144.062C81.6365 144.43 81.3365 144.722 80.9365 144.938C80.5365 145.154 80.0565 145.262 79.4965 145.262H76.1125ZM79.2205 140.414C79.7245 140.414 80.1085 140.298 80.3725 140.066C80.6445 139.834 80.7805 139.51 80.7805 139.094C80.7805 138.686 80.6485 138.374 80.3845 138.158C80.1205 137.942 79.7325 137.834 79.2205 137.834H77.0125V140.414H79.2205ZM79.3405 144.29C79.8445 144.29 80.2365 144.154 80.5165 143.882C80.8045 143.61 80.9485 143.262 80.9485 142.838C80.9485 142.398 80.8045 142.046 80.5165 141.782C80.2365 141.51 79.8445 141.374 79.3405 141.374H77.0125V144.29H79.3405Z" fill="white"/>
<path d="M44.3748 82.9202C43.2788 82.9202 42.4628 82.6242 41.9268 82.0322C41.3988 81.4402 41.1108 80.6522 41.0628 79.6682C41.0468 79.3962 41.0388 79.2002 41.0388 79.0802H39.2508V82.5242C39.2508 82.6042 39.2228 82.6722 39.1668 82.7282C39.1108 82.7762 39.0428 82.8002 38.9628 82.8002H38.3508C38.2708 82.8002 38.2028 82.7762 38.1468 82.7282C38.0988 82.6722 38.0748 82.6042 38.0748 82.5242V74.6762C38.0748 74.5962 38.0988 74.5322 38.1468 74.4842C38.2028 74.4282 38.2708 74.4002 38.3508 74.4002H38.9628C39.0428 74.4002 39.1108 74.4282 39.1668 74.4842C39.2228 74.5322 39.2508 74.5962 39.2508 74.6762V78.0002H41.0388C41.0388 77.8962 41.0468 77.7322 41.0628 77.5082C41.1188 76.5482 41.4108 75.7722 41.9388 75.1802C42.4748 74.5802 43.2868 74.2802 44.3748 74.2802C45.4788 74.2802 46.2988 74.5882 46.8348 75.2042C47.3788 75.8122 47.6668 76.6082 47.6988 77.5922C47.7148 78.0562 47.7228 78.3922 47.7228 78.6002C47.7228 78.8002 47.7148 79.1402 47.6988 79.6202C47.6668 80.6202 47.3828 81.4202 46.8468 82.0202C46.3108 82.6202 45.4868 82.9202 44.3748 82.9202ZM44.3748 81.9002C45.0148 81.9002 45.5228 81.7162 45.8988 81.3482C46.2748 80.9722 46.4748 80.3922 46.4988 79.6082C46.5148 79.1282 46.5228 78.7922 46.5228 78.6002C46.5228 78.3922 46.5148 78.0562 46.4988 77.5922C46.4748 76.8082 46.2708 76.2322 45.8868 75.8642C45.5108 75.4882 45.0068 75.3002 44.3748 75.3002C43.7428 75.3002 43.2388 75.4882 42.8628 75.8642C42.4868 76.2322 42.2828 76.8082 42.2508 77.5922C42.2428 77.8242 42.2388 78.1602 42.2388 78.6002C42.2388 79.0322 42.2428 79.3682 42.2508 79.6082C42.2828 80.4002 42.4828 80.9802 42.8508 81.3482C43.2268 81.7162 43.7348 81.9002 44.3748 81.9002Z" fill="white"/>
<path d="M105.049 46.8578C104.417 46.8578 103.873 46.7658 103.417 46.5818C102.969 46.3898 102.621 46.1338 102.373 45.8138C102.125 45.4858 101.981 45.1218 101.941 44.7218V44.6978C101.941 44.6338 101.965 44.5858 102.013 44.5538C102.061 44.5138 102.121 44.4938 102.193 44.4938H102.793C102.881 44.4938 102.953 44.5138 103.009 44.5538C103.065 44.5858 103.105 44.6498 103.129 44.7458C103.225 45.0818 103.437 45.3498 103.765 45.5498C104.093 45.7418 104.517 45.8378 105.037 45.8378C105.613 45.8378 106.093 45.7058 106.477 45.4418C106.869 45.1778 107.065 44.8178 107.065 44.3618C107.065 43.8898 106.893 43.5258 106.549 43.2698C106.213 43.0058 105.753 42.8738 105.169 42.8738H104.317C104.237 42.8738 104.169 42.8498 104.113 42.8018C104.065 42.7458 104.041 42.6778 104.041 42.5978V42.1778C104.041 42.0898 104.065 42.0218 104.113 41.9738C104.169 41.9178 104.237 41.8898 104.317 41.8898H105.121C105.633 41.8898 106.037 41.7778 106.333 41.5538C106.637 41.3298 106.789 40.9898 106.789 40.5338C106.789 40.1418 106.625 39.8298 106.297 39.5978C105.969 39.3578 105.561 39.2378 105.073 39.2378C104.569 39.2378 104.157 39.3298 103.837 39.5138C103.517 39.6978 103.317 39.9778 103.237 40.3538C103.197 40.5138 103.101 40.5938 102.949 40.5938H102.301C102.229 40.5938 102.165 40.5698 102.109 40.5218C102.061 40.4738 102.041 40.4138 102.049 40.3418C102.105 39.7018 102.393 39.1898 102.913 38.8058C103.433 38.4138 104.161 38.2178 105.097 38.2178C105.705 38.2178 106.225 38.3218 106.657 38.5298C107.097 38.7378 107.425 39.0138 107.641 39.3578C107.865 39.7018 107.977 40.0738 107.977 40.4738C107.977 41.3298 107.657 41.9458 107.017 42.3218C107.433 42.5298 107.745 42.8138 107.953 43.1738C108.161 43.5258 108.265 43.9298 108.265 44.3858C108.265 44.8738 108.133 45.3058 107.869 45.6818C107.605 46.0498 107.229 46.3378 106.741 46.5458C106.261 46.7538 105.697 46.8578 105.049 46.8578Z" fill="white"/>
<g clip-path="url(#clip0_16_647)">
<path d="M78.4773 85.8719C77.0962 85.8719 75.9727 86.9957 75.9727 88.3768C75.9727 89.7578 77.0962 90.8816 78.4773 90.8816C79.8582 90.8816 80.982 89.7581 80.982 88.3768C80.982 86.9954 79.8582 85.8719 78.4773 85.8719Z" fill="white"/>
<path d="M78.4775 85.1356C78.2075 85.1356 77.9888 84.9168 77.9888 84.6471V83.8652C77.9888 83.5953 78.2075 83.3765 78.4775 83.3765C78.7474 83.3765 78.9662 83.5953 78.9662 83.8652V84.6471C78.9662 84.9168 78.7472 85.1356 78.4775 85.1356Z" fill="white"/>
<path d="M78.4775 91.6172C78.2075 91.6172 77.9888 91.836 77.9888 92.106V92.8876C77.9888 93.1578 78.2075 93.3765 78.4775 93.3765C78.7474 93.3765 78.9662 93.1578 78.9662 92.8876V92.106C78.9662 91.836 78.7472 91.6172 78.4775 91.6172Z" fill="white"/>
<path d="M80.769 86.0849C80.5783 85.894 80.5783 85.5847 80.769 85.3938L81.3219 84.8409C81.5125 84.6502 81.8221 84.6502 82.013 84.8409C82.2039 85.0318 82.2039 85.3413 82.013 85.532L81.4601 86.0849C81.2694 86.2758 80.9601 86.2758 80.769 86.0849Z" fill="white"/>
<path d="M76.1859 90.6684C75.995 90.4773 75.6857 90.4773 75.4948 90.6684L74.9419 91.2211C74.7512 91.4117 74.751 91.7215 74.9419 91.9122C75.1328 92.1028 75.4423 92.1028 75.633 91.9122L76.1859 91.359C76.3768 91.1684 76.3768 90.8588 76.1859 90.6684Z" fill="white"/>
<path d="M81.7183 88.3765C81.7183 88.1066 81.937 87.8878 82.207 87.8878H82.9889C83.2588 87.8878 83.4776 88.1066 83.4776 88.3765C83.4776 88.6465 83.2588 88.865 82.9889 88.865H82.207C81.937 88.865 81.7183 88.6465 81.7183 88.3765Z" fill="white"/>
<path d="M75.2366 88.3765C75.2366 88.1066 75.0178 87.8878 74.7479 87.8878H73.9662C73.6963 87.8878 73.4775 88.1066 73.4775 88.3765C73.4775 88.6465 73.6963 88.865 73.9662 88.865H74.7481C75.0178 88.865 75.2366 88.6465 75.2366 88.3765Z" fill="white"/>
<path d="M80.7691 90.6684C80.96 90.4777 81.2696 90.4777 81.4602 90.6684L82.0132 91.2213C82.204 91.4118 82.204 91.7215 82.0132 91.9122C81.8223 92.1029 81.5129 92.1029 81.3221 91.9122L80.7691 91.3593C80.5783 91.1684 80.5783 90.8591 80.7691 90.6684Z" fill="white"/>
<path d="M76.186 86.0849C76.3769 85.894 76.3769 85.5847 76.186 85.3938L75.6331 84.8411C75.4422 84.6502 75.1329 84.6502 74.942 84.8411C74.7511 85.0318 74.7511 85.3413 74.942 85.532L75.4949 86.0849C75.6858 86.276 75.9951 86.276 76.186 86.0849Z" fill="white"/>
</g>
<g clip-path="url(#clip1_16_647)">
<path d="M105.524 100.623C107.437 100.643 109.185 99.541 109.991 97.8058C109.484 98.0271 108.934 98.1355 108.381 98.1234C106.213 98.121 104.456 96.3637 104.453 94.1952C104.475 92.7285 105.284 91.3868 106.571 90.6833C106.224 90.6391 105.874 90.6193 105.524 90.6242C102.763 90.6242 100.525 92.8625 100.525 95.6237C100.525 98.3849 102.763 100.623 105.524 100.623Z" fill="white"/>
</g>
<defs>
<clipPath id="clip0_16_647">
<rect width="10" height="10" fill="white" transform="translate(73.4775 83.3765)"/>
</clipPath>
<clipPath id="clip1_16_647">
<rect width="10" height="10" fill="white" transform="translate(100.523 90.6235)"/>
</clipPath>
</defs>
</svg>
