<?xml version="1.0" standalone="no"?>
<!DOCTYPE svg PUBLIC "-//W3C//DTD SVG 20010904//EN"
 "http://www.w3.org/TR/2001/REC-SVG-20010904/DTD/svg10.dtd">
<svg version="1.0" xmlns="http://www.w3.org/2000/svg"
 width="752.000000pt" height="752.000000pt" viewBox="0 0 752.000000 752.000000"
 preserveAspectRatio="xMidYMid meet">
<metadata>
Created by potrace 1.14, written by Peter Selinger 2001-2017
</metadata>
<g transform="translate(0.000000,752.000000) scale(0.100000,-0.100000)"
fill="#000000" stroke="none">
<path d="M0 6322 l0 -559 31 -1 c17 0 33 -3 36 -5 2 -3 18 -1 34 3 16 5 31 5
34 0 3 -4 21 -4 40 0 19 4 35 5 35 1 0 -3 33 -5 72 -4 40 1 84 3 98 3 14 0 36
1 50 1 37 2 62 1 95 0 17 -1 37 -1 45 -1 8 1 40 0 70 0 30 -1 60 -1 65 0 6 1
14 2 20 0 27 -5 105 -4 105 1 0 4 16 3 34 -1 19 -4 38 -5 41 -2 6 7 115 5 122
-2 2 -2 18 0 34 4 16 5 31 5 34 0 3 -4 21 -4 40 0 19 4 35 5 35 1 0 -3 19 -5
42 -4 96 5 129 5 134 0 3 -3 19 -1 35 3 16 5 31 5 34 0 3 -4 21 -4 40 0 19 4
35 5 35 1 0 -3 33 -5 72 -4 40 1 84 3 98 3 14 0 36 1 50 1 37 2 62 1 95 0 17
-1 37 -1 45 -1 8 1 40 0 70 0 30 -1 60 -1 65 0 6 1 14 2 20 0 27 -5 105 -4
105 1 0 4 16 3 34 -1 19 -4 38 -5 41 -2 6 7 115 5 122 -2 2 -2 18 0 34 4 16 5
31 5 34 0 3 -4 21 -4 40 0 19 4 35 5 35 1 0 -3 33 -5 72 -4 40 1 84 3 98 3 14
0 36 1 50 1 37 2 62 1 95 0 17 -1 37 -1 45 -1 8 1 40 0 70 0 30 -1 60 -1 65 0
6 1 14 2 20 0 27 -5 105 -4 105 1 0 4 16 3 35 -1 19 -4 37 -4 40 0 2 4 22 4
43 0 21 -4 48 -3 59 1 11 4 26 4 33 -1 7 -4 24 -4 39 0 14 4 35 6 46 4 19 -3
54 -5 85 -4 8 1 40 0 70 0 30 -1 60 -1 65 0 6 1 14 2 20 0 27 -5 105 -4 105 1
0 4 16 3 35 -1 19 -4 37 -5 39 -1 2 3 22 5 43 4 34 -3 61 -3 103 -3 26 1 134
0 164 0 17 0 32 -2 34 -4 2 -2 16 -1 30 3 15 4 38 5 52 1 14 -4 35 -3 46 1 12
4 25 5 28 2 3 -4 27 -5 54 -4 62 2 105 1 110 -3 2 -2 16 -1 30 3 15 4 38 5 52
1 14 -4 37 -3 52 1 15 4 30 4 33 -1 3 -4 21 -4 40 0 19 4 35 5 35 1 0 -3 33
-5 72 -4 40 1 84 3 98 3 14 0 36 1 50 1 37 2 62 1 95 0 17 -1 37 -1 45 -1 8 1
40 0 70 0 30 -1 60 -1 65 0 6 1 14 2 20 0 27 -5 105 -4 105 1 0 4 16 3 34 -1
19 -4 38 -5 41 -2 6 7 115 5 122 -2 2 -2 18 0 34 4 16 5 31 5 34 0 3 -4 21 -4
40 0 19 4 35 5 35 1 0 -6 132 -4 162 3 10 2 18 1 18 -2 0 -9 64 -7 79 3 7 4
11 16 8 26 -3 11 -1 19 3 19 5 0 5 14 0 30 -5 17 -6 30 -2 30 8 0 7 109 -1
116 -3 3 -1 19 3 35 5 16 5 29 0 29 -5 0 -5 13 0 29 4 15 4 34 0 42 -5 7 -5
20 0 29 5 9 5 22 1 28 -4 7 -5 35 -1 62 4 27 3 55 -1 61 -4 7 -3 25 1 40 5 16
5 29 0 29 -5 0 -5 13 0 30 5 17 5 30 0 30 -5 0 -5 13 0 29 4 16 6 32 3 35 -8
8 -9 116 -1 116 4 0 3 14 -2 30 -5 17 -6 30 -2 30 8 0 7 108 -1 116 -3 3 -1
19 3 35 5 17 5 29 0 29 -5 0 -7 7 -4 15 5 13 -327 15 -2955 15 l-2961 0 0
-558z"/>
<path d="M6395 6845 c0 -19 3 -35 7 -35 4 0 3 -13 -2 -28 -4 -16 -4 -35 1 -43
4 -8 4 -21 -1 -29 -4 -7 -4 -23 0 -36 5 -12 6 -25 3 -28 -8 -8 -9 -76 -1 -76
4 0 3 -13 -2 -28 -4 -16 -4 -35 1 -43 4 -8 4 -21 -1 -29 -4 -7 -4 -23 0 -36 5
-12 6 -25 3 -28 -8 -8 -10 -76 -2 -76 4 0 3 -18 -1 -40 -4 -22 -4 -40 1 -40 4
0 4 -13 -1 -30 -5 -17 -5 -32 0 -35 5 -3 5 -16 1 -28 -5 -12 -5 -34 0 -49 4
-16 5 -28 1 -28 -4 0 -7 -16 -7 -35 0 -19 3 -35 7 -35 4 0 3 -13 -2 -30 -5
-17 -5 -32 0 -35 5 -3 5 -16 1 -28 -5 -12 -5 -34 0 -49 4 -16 5 -28 1 -28 -4
0 -7 -16 -7 -35 0 -19 3 -35 7 -35 4 0 3 -13 -2 -30 -5 -17 -5 -32 0 -35 5 -3
5 -16 1 -28 -5 -12 -5 -34 0 -49 4 -16 5 -28 1 -28 -4 0 -7 -16 -7 -35 0 -19
3 -35 7 -35 4 0 3 -13 -2 -30 -5 -17 -5 -32 0 -35 5 -3 5 -16 1 -28 -5 -12 -5
-34 0 -49 4 -16 5 -28 1 -28 -4 0 -7 -16 -7 -35 0 -19 3 -35 7 -35 4 0 3 -13
-2 -30 -5 -17 -5 -32 0 -35 5 -3 5 -16 1 -28 -5 -12 -5 -34 -1 -48 4 -15 4
-32 0 -39 -4 -7 -4 -26 0 -41 5 -17 5 -31 -1 -35 -5 -3 -6 -10 -3 -16 6 -10 6
-35 1 -126 -1 -23 1 -42 5 -42 4 0 3 -13 -2 -28 -4 -16 -4 -35 1 -43 4 -8 4
-21 -1 -29 -4 -7 -4 -23 0 -36 5 -12 6 -25 2 -28 -7 -7 -6 -91 1 -103 2 -4 1
-17 -3 -28 -4 -11 -4 -32 1 -47 4 -15 4 -30 -1 -33 -4 -3 -4 -21 0 -40 4 -19
4 -37 0 -40 -5 -3 -5 -19 0 -35 5 -18 5 -32 -1 -35 -5 -4 -9 -4 -9 -2 0 3 -16
1 -35 -3 -19 -4 -37 -4 -40 0 -3 4 -21 4 -40 0 -19 -4 -37 -4 -40 0 -3 4 -21
4 -40 0 -19 -4 -37 -4 -40 0 -3 4 -21 4 -40 0 -19 -4 -37 -4 -40 0 -3 4 -21 4
-40 0 -19 -4 -37 -4 -40 0 -3 4 -21 4 -40 0 -19 -4 -37 -4 -40 0 -3 4 -21 4
-40 0 -19 -4 -37 -4 -40 1 -3 4 -11 6 -19 3 -19 -7 -146 -10 -146 -3 0 3 -19
3 -43 -1 -24 -3 -55 -3 -69 1 -14 4 -31 3 -38 -1 -7 -4 -26 -4 -44 0 -17 4
-40 4 -51 0 -11 -4 -26 -5 -33 -3 -19 8 -192 9 -192 2 0 -4 -18 -3 -40 1 -22
4 -43 4 -45 -1 -3 -4 -18 -4 -34 1 -15 4 -34 4 -41 0 -6 -4 -26 -4 -44 0 -17
4 -40 4 -51 0 -11 -4 -26 -5 -33 -3 -22 9 -192 8 -192 0 0 -5 -4 -6 -9 -2 -9
5 -124 9 -146 5 -11 -2 -50 0 -80 4 -11 2 -34 0 -52 -5 -18 -4 -35 -3 -38 1
-3 4 -21 4 -40 0 -19 -4 -37 -4 -40 0 -3 4 -21 4 -40 0 -21 -5 -35 -4 -35 2 0
5 -4 7 -8 4 -5 -3 -24 -6 -43 -7 l-34 -3 0 -63 c0 -35 3 -63 7 -63 4 0 3 -13
-2 -30 -5 -17 -5 -32 0 -35 6 -3 5 -16 0 -29 -5 -13 -6 -26 -4 -29 8 -8 10
-117 3 -117 -4 0 -3 -16 1 -35 4 -19 4 -35 0 -35 -4 0 -4 -18 0 -40 4 -22 4
-40 0 -40 -4 0 -4 -16 0 -35 4 -19 5 -37 0 -40 -4 -2 -4 -25 0 -50 4 -25 4
-45 -1 -45 -4 0 -3 -16 1 -35 4 -19 4 -35 0 -35 -4 0 -4 -18 0 -40 4 -22 4
-40 0 -40 -4 0 -4 -16 0 -34 4 -19 5 -38 2 -41 -7 -7 -5 -105 2 -112 3 -3 1
-14 -5 -24 -5 -11 -6 -19 -1 -19 5 0 8 -10 8 -22 -1 -17 6 -23 32 -29 18 -3
35 -3 38 2 3 5 10 7 15 4 11 -8 217 -10 225 -3 3 3 20 2 37 -2 18 -4 42 -4 52
0 11 4 29 4 40 0 11 -4 32 -4 47 1 14 4 29 5 32 2 3 -3 45 -5 93 -4 48 1 99 1
113 1 14 -1 30 -2 35 -1 6 0 36 2 68 3 31 2 57 1 57 -2 0 -3 29 -5 65 -5 36 0
65 3 65 7 0 4 6 5 13 3 19 -8 137 -11 137 -4 0 4 18 3 40 -1 22 -4 42 -5 45
-2 3 3 27 5 53 3 59 -2 109 -3 195 -1 44 1 56 1 112 1 33 0 67 0 75 0 8 0 42
-1 75 0 33 0 67 0 75 0 8 0 47 0 87 -1 40 0 76 0 80 1 4 1 13 0 18 -1 14 -2
98 -2 110 0 6 1 32 2 59 1 46 -1 48 -2 42 -25 -3 -14 -2 -27 3 -31 5 -3 6 -17
2 -33 -5 -15 -4 -37 0 -50 5 -12 5 -22 1 -22 -4 0 -7 -16 -7 -35 0 -19 3 -35
7 -35 4 0 3 -13 -2 -30 -5 -17 -5 -32 0 -35 5 -3 5 -16 1 -28 -5 -12 -5 -34 0
-49 4 -16 5 -28 1 -28 -4 0 -7 -16 -7 -35 0 -19 3 -35 7 -35 4 0 3 -13 -2 -30
-5 -17 -5 -32 0 -35 5 -3 5 -16 1 -28 -5 -12 -5 -34 -1 -48 4 -15 4 -32 0 -39
-4 -7 -4 -26 0 -41 5 -16 5 -31 0 -34 -5 -3 -5 -18 0 -34 4 -16 6 -32 3 -35
-7 -7 -8 -210 -1 -222 3 -5 2 -18 -2 -29 -4 -11 -4 -32 1 -47 4 -16 5 -28 1
-28 -4 0 -7 -16 -7 -35 0 -19 3 -35 7 -35 4 0 3 -13 -2 -30 -5 -16 -5 -32 0
-35 5 -3 5 -18 1 -33 -5 -15 -5 -36 -1 -47 4 -11 4 -34 -1 -52 -4 -20 -3 -36
3 -39 18 -11 -14 -23 -37 -14 -12 5 -28 5 -35 0 -7 -5 -23 -5 -34 0 -12 4 -30
4 -41 0 -11 -4 -31 -4 -45 0 -14 4 -35 4 -47 -1 -12 -4 -25 -4 -28 1 -3 5 -18
5 -35 0 -17 -5 -30 -6 -30 -2 0 4 -16 7 -35 7 -19 0 -35 -3 -35 -7 0 -4 -12
-3 -27 1 -16 5 -37 5 -48 1 -11 -4 -24 -5 -29 -2 -12 7 -135 6 -142 -1 -3 -3
-16 -2 -28 3 -12 4 -29 4 -37 0 -8 -5 -21 -5 -28 0 -8 4 -27 4 -42 0 -16 -5
-29 -6 -29 -2 0 6 -65 7 -80 2 -3 -2 -9 -1 -15 0 -25 5 -95 3 -101 -2 -3 -4
-16 -3 -28 2 -12 4 -29 4 -37 0 -8 -5 -21 -5 -28 0 -8 4 -27 4 -42 0 -16 -5
-29 -6 -29 -2 0 4 -19 6 -42 5 -91 -5 -116 -5 -126 1 -6 3 -13 2 -16 -3 -4 -6
-18 -6 -35 -1 -15 4 -34 4 -41 0 -7 -4 -24 -4 -39 0 -14 4 -36 4 -48 -1 -12
-4 -25 -4 -28 1 -3 5 -18 5 -35 0 -17 -5 -30 -6 -30 -2 0 4 -16 7 -35 7 -19 0
-35 -3 -35 -7 0 -4 -12 -3 -27 1 -16 5 -37 5 -48 1 -11 -4 -24 -5 -29 -2 -12
7 -70 7 -82 0 -5 -3 -18 -2 -29 2 -11 4 -30 4 -41 -1 -12 -4 -25 -5 -28 -2 -7
8 -69 8 -82 1 -5 -3 -18 -2 -29 2 -11 4 -32 4 -47 -1 -16 -4 -28 -5 -28 -1 0
6 -35 7 -84 3 -4 -1 -6 -12 -4 -26 3 -14 2 -25 -2 -25 -4 0 -4 -16 0 -35 4
-19 4 -35 0 -35 -4 0 -4 -18 0 -40 4 -22 4 -40 0 -40 -4 0 -4 -16 0 -34 4 -19
5 -38 2 -41 -8 -7 -5 -102 3 -115 3 -6 2 -10 -4 -10 -6 0 -6 -11 -1 -30 5 -17
5 -30 0 -30 -5 0 -5 -13 0 -30 5 -17 5 -30 0 -30 -5 0 -5 -13 0 -30 5 -17 5
-30 0 -30 -5 0 -5 -13 0 -30 5 -17 5 -30 0 -30 -5 0 -5 -13 0 -30 5 -17 5 -30
0 -30 -5 0 -5 -13 0 -30 5 -17 5 -30 0 -30 -5 0 -5 -13 0 -30 5 -17 5 -30 0
-30 -5 0 -5 -13 0 -30 5 -19 5 -30 -1 -30 -6 0 -7 -4 -4 -10 8 -13 11 -108 3
-115 -3 -4 -2 -20 2 -36 5 -16 5 -31 0 -34 -4 -3 -6 -14 -3 -25 5 -20 14 -20
1684 -20 l1679 0 0 3120 0 3120 -562 0 -563 0 0 -35z"/>
<path d="M4 4321 c-2 -2 -4 -256 -4 -563 l0 -559 48 1 c39 0 100 1 192 1 8 0
47 0 87 -1 40 0 76 0 80 1 4 1 13 0 18 -1 6 -1 33 -1 60 -1 92 2 127 1 135 -4
5 -3 11 -1 14 4 3 5 21 6 39 2 18 -5 41 -5 52 -1 11 4 29 4 40 0 11 -4 32 -4
47 0 14 5 29 6 32 3 3 -3 45 -5 93 -4 48 1 99 1 113 1 14 -1 30 -2 35 -1 6 0
36 2 68 3 31 2 57 1 57 -2 0 -3 29 -5 65 -5 36 0 65 3 65 7 0 4 6 5 13 3 19
-8 137 -11 137 -4 0 4 18 3 40 -1 22 -4 42 -5 45 -2 3 3 27 5 53 3 59 -2 109
-3 195 -1 44 1 56 1 112 1 33 0 67 0 75 0 8 0 42 -1 75 0 33 0 67 0 75 0 8 0
47 0 87 -1 40 0 76 0 80 1 4 1 13 0 18 -1 8 -1 50 -1 130 1 18 1 149 -1 175
-2 14 0 30 -1 35 0 6 0 36 2 68 3 31 2 57 1 57 -2 0 -4 136 -4 150 1 7 2 50
-1 75 -5 11 -2 27 0 35 4 8 4 26 4 40 0 14 -4 34 -4 45 0 11 4 29 4 40 0 11
-4 32 -4 47 1 15 4 30 4 32 0 6 -10 67 -2 83 11 8 6 9 17 3 32 -4 13 -4 29 0
36 5 8 6 18 3 22 -7 12 -8 96 -1 103 3 4 2 19 -2 35 -4 16 -6 31 -3 34 4 3 5
29 4 58 -1 29 -1 60 -1 68 0 8 0 24 0 35 -1 11 -1 27 0 35 0 8 0 24 0 35 -1
11 -1 26 -1 33 2 25 2 38 0 90 -1 29 0 55 4 58 3 3 1 18 -3 34 -4 16 -6 31 -2
34 7 7 6 105 -1 113 -3 2 -1 18 3 34 5 16 5 29 0 29 -5 0 -5 13 0 29 4 15 4
34 0 42 -5 7 -5 20 0 29 5 9 5 22 0 30 -4 7 -6 23 -4 36 4 19 -1 22 -36 26
-23 2 -46 1 -52 -3 -6 -4 -22 -3 -37 1 -14 4 -36 4 -47 0 -11 -5 -26 -5 -33
-1 -6 4 -32 5 -56 1 -25 -4 -45 -4 -45 -1 0 3 -20 6 -45 6 -25 0 -45 -3 -45
-6 0 -4 -15 -3 -32 0 -18 4 -52 4 -75 1 -24 -4 -43 -4 -43 -1 0 3 -20 6 -45 6
-25 0 -45 -3 -45 -6 0 -4 -15 -3 -34 1 -19 4 -39 4 -46 0 -6 -4 -26 -4 -43 -1
-18 4 -53 4 -79 1 -26 -4 -53 -3 -59 1 -6 3 -26 3 -45 -1 -19 -4 -36 -4 -39 0
-3 4 -21 4 -40 0 -19 -4 -35 -5 -35 -1 0 4 -22 5 -50 1 -27 -3 -54 -3 -60 0
-6 4 -31 4 -55 0 -25 -4 -45 -4 -45 -1 0 3 -20 6 -45 6 -25 0 -45 -3 -45 -6 0
-4 -15 -3 -34 1 -19 4 -39 4 -46 0 -7 -4 -27 -4 -46 0 -19 4 -36 4 -39 0 -3
-5 -18 -5 -33 -1 -15 4 -38 5 -52 1 -14 -4 -34 -4 -44 0 -11 4 -37 3 -58 0
-21 -4 -38 -5 -38 -1 0 5 -76 6 -90 0 -3 -1 -9 0 -15 1 -21 4 -295 1 -303 -4
-4 -2 -14 -1 -21 3 -7 5 -28 5 -47 1 -19 -4 -36 -4 -39 0 -3 4 -21 4 -40 0
-19 -4 -35 -5 -35 -1 0 4 -22 5 -50 1 -27 -3 -54 -3 -60 0 -6 4 -31 4 -55 0
-25 -4 -45 -4 -45 -1 0 3 -20 6 -45 6 -25 0 -45 -3 -45 -6 0 -4 -15 -3 -34 1
-19 4 -39 4 -46 0 -7 -4 -27 -4 -46 0 -19 4 -36 4 -39 0 -3 -5 -18 -5 -33 -1
-15 4 -38 5 -52 1 -14 -4 -34 -4 -44 0 -11 4 -37 3 -58 0 -21 -4 -38 -5 -38
-1 0 5 -75 6 -90 1 -3 -1 -18 -1 -35 0 -62 4 -197 5 -201 1z"/>
<path d="M23 1762 l-23 -3 0 -560 0 -559 1681 0 c1676 0 1681 0 1676 20 -3 11
-1 22 3 25 5 3 5 18 0 34 -4 16 -6 32 -2 35 7 7 6 105 -1 113 -3 2 -1 18 3 34
5 16 5 29 0 29 -5 0 -5 13 0 29 4 15 4 34 0 42 -5 7 -5 20 0 29 5 9 5 22 1 28
-4 7 -5 32 -1 56 3 24 3 51 0 62 -4 10 -4 31 1 47 4 15 4 27 -1 27 -5 0 -5 13
0 29 4 15 4 34 0 42 -5 7 -5 20 0 30 5 9 7 19 4 22 -8 8 -9 106 -1 113 3 3 1
18 -3 34 -4 16 -6 31 -3 34 4 3 5 29 4 58 -1 51 -2 65 0 98 2 45 -14 62 -46
50 -12 -5 -28 -5 -35 0 -7 4 -24 4 -39 0 -14 -4 -35 -6 -46 -4 -11 2 -31 4
-45 4 -14 0 -36 0 -50 0 -14 1 -32 1 -40 0 -8 0 -26 0 -40 1 -14 0 -31 0 -37
0 -24 -2 -38 -2 -111 1 -39 2 -72 0 -72 -4 0 -4 -13 -3 -29 2 -15 4 -34 4 -42
0 -7 -5 -17 -6 -22 -3 -13 8 -147 9 -147 1 0 -4 -13 -3 -29 2 -15 4 -34 4 -42
0 -7 -5 -17 -6 -22 -3 -13 8 -147 9 -147 1 0 -4 -13 -3 -29 2 -15 4 -34 4 -42
0 -7 -5 -17 -6 -22 -3 -8 5 -188 7 -212 3 -5 -1 -14 -1 -20 0 -5 1 -36 1 -67
1 -57 -1 -76 -2 -100 0 -16 0 -76 0 -103 -1 -11 -1 -26 -1 -32 -1 -7 1 -19 1
-25 2 -16 0 -76 0 -103 -1 -11 -1 -26 -1 -32 -1 -7 1 -19 1 -25 2 -16 0 -76 0
-103 -1 -11 -1 -27 -1 -35 0 -20 1 -60 -1 -85 -4 -11 -1 -32 1 -47 5 -15 4
-30 4 -33 -1 -3 -5 -18 -5 -34 0 -15 4 -34 4 -41 0 -7 -4 -24 -4 -39 0 -14 4
-36 4 -48 -1 -12 -4 -25 -4 -28 1 -3 5 -18 5 -35 0 -17 -5 -30 -6 -30 -2 0 4
-16 7 -35 7 -19 0 -35 -3 -35 -7 0 -4 -12 -3 -27 1 -16 5 -37 5 -48 1 -11 -4
-24 -5 -29 -2 -12 7 -135 6 -142 -1 -3 -3 -16 -2 -28 3 -12 4 -29 4 -37 0 -8
-5 -21 -5 -28 0 -8 4 -27 4 -42 0 -16 -5 -29 -6 -29 -2 0 6 -65 7 -80 2 -3 -2
-9 -1 -15 0 -25 5 -95 3 -101 -2 -3 -4 -16 -3 -28 2 -12 4 -29 4 -37 0 -8 -5
-21 -5 -28 0 -8 4 -27 4 -42 0 -16 -5 -29 -6 -29 -2 0 7 -49 9 -87 4z"/>
</g>
</svg>
